simulacoes/vcd/adc.vcd
$date
	Mon Jul 17 18:02:44 2023
$end
$version
	Icarus Verilog
$end
$timescale
	1s
$end
$scope module adc_tb $end
$var wire 7 ! sgm2 [6:0] $end
$var wire 7 " sgm1 [6:0] $end
$var wire 7 # sgm0 [6:0] $end
$var wire 1 $ rst_s $end
$var wire 1 % ld $end
$var wire 1 & enb_3 $end
$var wire 1 ' enb_0 $end
$var wire 1 ( ch_zr $end
$var wire 1 ) ch_vm $end
$var wire 1 * ch_ref $end
$var reg 1 + Vint_z $end
$var reg 1 , ck $end
$var reg 1 - inicio $end
$scope module control $end
$var wire 1 + Vint_z $end
$var wire 1 . _007_ $end
$var wire 1 / _008_ $end
$var wire 1 0 _009_ $end
$var wire 1 1 _010_ $end
$var wire 1 2 _011_ $end
$var wire 1 3 _013_ $end
$var wire 1 4 _015_ $end
$var wire 1 5 _017_ $end
$var wire 1 6 _019_ $end
$var wire 1 7 _020_ $end
$var wire 1 8 _024_ $end
$var wire 1 9 _025_ $end
$var wire 1 : _026_ $end
$var wire 1 ; _027_ $end
$var wire 1 < _029_ $end
$var wire 1 = _030_ $end
$var wire 1 > _031_ $end
$var wire 1 ? _038_ $end
$var wire 1 @ _039_ $end
$var wire 1 A _040_ $end
$var wire 1 B _041_ $end
$var wire 1 C _042_ $end
$var wire 1 D _043_ $end
$var wire 1 , ck $end
$var wire 1 - inicio $end
$var wire 1 & enb_3 $end
$var wire 3 E _037_ [2:0] $end
$var wire 3 F _036_ [2:0] $end
$var wire 3 G _035_ [2:0] $end
$var wire 3 H _034_ [2:0] $end
$var wire 15 I _033_ [14:0] $end
$var wire 2 J _032_ [1:0] $end
$var wire 2 K _028_ [1:0] $end
$var wire 3 L _023_ [2:0] $end
$var wire 3 M _022_ [2:0] $end
$var wire 3 N _021_ [2:0] $end
$var wire 2 O _018_ [1:0] $end
$var wire 2 P _016_ [1:0] $end
$var wire 2 Q _014_ [1:0] $end
$var wire 2 R _012_ [1:0] $end
$var wire 1 S _006_ $end
$var wire 3 T _005_ [2:0] $end
$var wire 1 U _004_ $end
$var wire 1 V _003_ $end
$var wire 1 W _002_ $end
$var wire 1 X _001_ $end
$var wire 1 Y _000_ $end
$var reg 1 * ch_ref $end
$var reg 1 ) ch_vm $end
$var reg 1 ( ch_zr $end
$var reg 1 ' enb_0 $end
$var reg 1 % ld $end
$var reg 3 Z next_state [2:0] $end
$var reg 1 $ rst_s $end
$var reg 3 [ state [2:0] $end
$upscope $end
$scope module counter $end
$var wire 1 , ck $end
$var wire 1 ' enb_0 $end
$var wire 1 \ enb_2 $end
$var wire 1 & enb_3 $end
$var wire 1 % ld $end
$var wire 1 $ rst_s $end
$var wire 7 ] sgm2 [6:0] $end
$var wire 7 ^ sgm1 [6:0] $end
$var wire 7 _ sgm0 [6:0] $end
$var wire 1 ` enb_1 $end
$var wire 1 a aux_2 $end
$var wire 1 b aux_1 $end
$scope module bloco1 $end
$var wire 1 , ck $end
$var wire 1 ' enb $end
$var wire 1 % ld $end
$var wire 1 $ rst_s $end
$var wire 7 c sgm [6:0] $end
$var wire 4 d qx [3:0] $end
$var wire 4 e qs [3:0] $end
$var wire 1 ` cnt_max $end
$scope module contador $end
$var wire 1 f _00_ $end
$var wire 1 g _09_ $end
$var wire 1 h _10_ $end
$var wire 1 , ck $end
$var wire 1 ' enb $end
$var wire 1 $ rst_s $end
$var wire 32 i _11_ [31:0] $end
$var wire 4 j _08_ [3:0] $end
$var wire 4 k _07_ [3:0] $end
$var wire 2 l _06_ [1:0] $end
$var wire 2 m _05_ [1:0] $end
$var wire 32 n _04_ [31:0] $end
$var wire 4 o _03_ [3:0] $end
$var wire 4 p _02_ [3:0] $end
$var wire 4 q _01_ [3:0] $end
$var reg 1 ` cnt_max $end
$var reg 4 r q [3:0] $end
$upscope $end
$scope module conversor $end
$var wire 1 s _007_ $end
$var wire 1 t _010_ $end
$var wire 1 u _013_ $end
$var wire 1 v _016_ $end
$var wire 1 w _017_ $end
$var wire 1 x _020_ $end
$var wire 1 y _021_ $end
$var wire 1 z _022_ $end
$var wire 1 { _023_ $end
$var wire 1 | _028_ $end
$var wire 1 } _029_ $end
$var wire 1 ~ _030_ $end
$var wire 1 !" _031_ $end
$var wire 1 "" _032_ $end
$var wire 1 #" _033_ $end
$var wire 1 $" _034_ $end
$var wire 1 %" _035_ $end
$var wire 1 &" _036_ $end
$var wire 1 '" _039_ $end
$var wire 7 (" sgm [6:0] $end
$var wire 4 )" bcd [3:0] $end
$var wire 7 *" _038_ [6:0] $end
$var wire 70 +" _037_ [69:0] $end
$var wire 4 ," _027_ [3:0] $end
$var wire 4 -" _026_ [3:0] $end
$var wire 4 ." _025_ [3:0] $end
$var wire 4 /" _024_ [3:0] $end
$var wire 2 0" _019_ [1:0] $end
$var wire 5 1" _018_ [4:0] $end
$var wire 2 2" _015_ [1:0] $end
$var wire 5 3" _014_ [4:0] $end
$var wire 2 4" _012_ [1:0] $end
$var wire 5 5" _011_ [4:0] $end
$var wire 2 6" _009_ [1:0] $end
$var wire 5 7" _008_ [4:0] $end
$var wire 2 8" _006_ [1:0] $end
$var wire 5 9" _005_ [4:0] $end
$var wire 2 :" _004_ [1:0] $end
$var wire 2 ;" _003_ [1:0] $end
$var wire 2 <" _002_ [1:0] $end
$var wire 2 =" _001_ [1:0] $end
$var wire 2 >" _000_ [1:0] $end
$upscope $end
$scope module registrador $end
$var wire 1 , ck $end
$var wire 4 ?" d [3:0] $end
$var wire 1 % ld $end
$var wire 4 @" _0_ [3:0] $end
$var reg 4 A" q [3:0] $end
$upscope $end
$upscope $end
$scope module bloco2 $end
$var wire 1 , ck $end
$var wire 1 ` enb $end
$var wire 1 % ld $end
$var wire 1 $ rst_s $end
$var wire 7 B" sgm [6:0] $end
$var wire 4 C" qx [3:0] $end
$var wire 4 D" qs [3:0] $end
$var wire 1 b cnt_max $end
$scope module contador $end
$var wire 1 E" _00_ $end
$var wire 1 F" _09_ $end
$var wire 1 G" _10_ $end
$var wire 1 , ck $end
$var wire 1 ` enb $end
$var wire 1 $ rst_s $end
$var wire 32 H" _11_ [31:0] $end
$var wire 4 I" _08_ [3:0] $end
$var wire 4 J" _07_ [3:0] $end
$var wire 2 K" _06_ [1:0] $end
$var wire 2 L" _05_ [1:0] $end
$var wire 32 M" _04_ [31:0] $end
$var wire 4 N" _03_ [3:0] $end
$var wire 4 O" _02_ [3:0] $end
$var wire 4 P" _01_ [3:0] $end
$var reg 1 b cnt_max $end
$var reg 4 Q" q [3:0] $end
$upscope $end
$scope module conversor $end
$var wire 1 R" _007_ $end
$var wire 1 S" _010_ $end
$var wire 1 T" _013_ $end
$var wire 1 U" _016_ $end
$var wire 1 V" _017_ $end
$var wire 1 W" _020_ $end
$var wire 1 X" _021_ $end
$var wire 1 Y" _022_ $end
$var wire 1 Z" _023_ $end
$var wire 1 [" _028_ $end
$var wire 1 \" _029_ $end
$var wire 1 ]" _030_ $end
$var wire 1 ^" _031_ $end
$var wire 1 _" _032_ $end
$var wire 1 `" _033_ $end
$var wire 1 a" _034_ $end
$var wire 1 b" _035_ $end
$var wire 1 c" _036_ $end
$var wire 1 d" _039_ $end
$var wire 7 e" sgm [6:0] $end
$var wire 4 f" bcd [3:0] $end
$var wire 7 g" _038_ [6:0] $end
$var wire 70 h" _037_ [69:0] $end
$var wire 4 i" _027_ [3:0] $end
$var wire 4 j" _026_ [3:0] $end
$var wire 4 k" _025_ [3:0] $end
$var wire 4 l" _024_ [3:0] $end
$var wire 2 m" _019_ [1:0] $end
$var wire 5 n" _018_ [4:0] $end
$var wire 2 o" _015_ [1:0] $end
$var wire 5 p" _014_ [4:0] $end
$var wire 2 q" _012_ [1:0] $end
$var wire 5 r" _011_ [4:0] $end
$var wire 2 s" _009_ [1:0] $end
$var wire 5 t" _008_ [4:0] $end
$var wire 2 u" _006_ [1:0] $end
$var wire 5 v" _005_ [4:0] $end
$var wire 2 w" _004_ [1:0] $end
$var wire 2 x" _003_ [1:0] $end
$var wire 2 y" _002_ [1:0] $end
$var wire 2 z" _001_ [1:0] $end
$var wire 2 {" _000_ [1:0] $end
$upscope $end
$scope module registrador $end
$var wire 1 , ck $end
$var wire 4 |" d [3:0] $end
$var wire 1 % ld $end
$var wire 4 }" _0_ [3:0] $end
$var reg 4 ~" q [3:0] $end
$upscope $end
$upscope $end
$scope module bloco3 $end
$var wire 1 , ck $end
$var wire 1 \ enb $end
$var wire 1 % ld $end
$var wire 1 $ rst_s $end
$var wire 7 !# sgm [6:0] $end
$var wire 4 "# qx [3:0] $end
$var wire 4 ## qs [3:0] $end
$var wire 1 a cnt_max $end
$scope module contador $end
$var wire 1 $# _00_ $end
$var wire 1 %# _09_ $end
$var wire 1 &# _10_ $end
$var wire 1 , ck $end
$var wire 1 \ enb $end
$var wire 1 $ rst_s $end
$var wire 32 '# _11_ [31:0] $end
$var wire 4 (# _08_ [3:0] $end
$var wire 4 )# _07_ [3:0] $end
$var wire 2 *# _06_ [1:0] $end
$var wire 2 +# _05_ [1:0] $end
$var wire 32 ,# _04_ [31:0] $end
$var wire 4 -# _03_ [3:0] $end
$var wire 4 .# _02_ [3:0] $end
$var wire 4 /# _01_ [3:0] $end
$var reg 1 a cnt_max $end
$var reg 4 0# q [3:0] $end
$upscope $end
$scope module conversor $end
$var wire 1 1# _007_ $end
$var wire 1 2# _010_ $end
$var wire 1 3# _013_ $end
$var wire 1 4# _016_ $end
$var wire 1 5# _017_ $end
$var wire 1 6# _020_ $end
$var wire 1 7# _021_ $end
$var wire 1 8# _022_ $end
$var wire 1 9# _023_ $end
$var wire 1 :# _028_ $end
$var wire 1 ;# _029_ $end
$var wire 1 <# _030_ $end
$var wire 1 =# _031_ $end
$var wire 1 ># _032_ $end
$var wire 1 ?# _033_ $end
$var wire 1 @# _034_ $end
$var wire 1 A# _035_ $end
$var wire 1 B# _036_ $end
$var wire 1 C# _039_ $end
$var wire 7 D# sgm [6:0] $end
$var wire 4 E# bcd [3:0] $end
$var wire 7 F# _038_ [6:0] $end
$var wire 70 G# _037_ [69:0] $end
$var wire 4 H# _027_ [3:0] $end
$var wire 4 I# _026_ [3:0] $end
$var wire 4 J# _025_ [3:0] $end
$var wire 4 K# _024_ [3:0] $end
$var wire 2 L# _019_ [1:0] $end
$var wire 5 M# _018_ [4:0] $end
$var wire 2 N# _015_ [1:0] $end
$var wire 5 O# _014_ [4:0] $end
$var wire 2 P# _012_ [1:0] $end
$var wire 5 Q# _011_ [4:0] $end
$var wire 2 R# _009_ [1:0] $end
$var wire 5 S# _008_ [4:0] $end
$var wire 2 T# _006_ [1:0] $end
$var wire 5 U# _005_ [4:0] $end
$var wire 2 V# _004_ [1:0] $end
$var wire 2 W# _003_ [1:0] $end
$var wire 2 X# _002_ [1:0] $end
$var wire 2 Y# _001_ [1:0] $end
$var wire 2 Z# _000_ [1:0] $end
$upscope $end
$scope module registrador $end
$var wire 1 , ck $end
$var wire 4 [# d [3:0] $end
$var wire 1 % ld $end
$var wire 4 \# _0_ [3:0] $end
$var reg 4 ]# q [3:0] $end
$upscope $end
$upscope $end
$upscope $end
$upscope $end
$enddefinitions $end
#0
$dumpvars
b0 ]#
b0 \#
b0 [#
b1 Z#
b1 Y#
b11 X#
b10 W#
b10 V#
b0 U#
b0 T#
b10000 S#
b0 R#
b10000 Q#
b0 P#
b10000 O#
b0 N#
b10000 M#
b0 L#
b10 K#
b11 J#
b101 I#
b1000 H#
b1111110000000000000000000000000000000000000000000000000000000000000000 G#
b1111110 F#
b0 E#
b1111110 D#
1C#
1B#
1A#
1@#
1?#
1>#
1=#
1<#
1;#
1:#
09#
08#
07#
06#
05#
04#
03#
02#
01#
b0 0#
b0 /#
b0 .#
b1 -#
b0z0001 ,#
b11 +#
b11 *#
b1001 )#
b1001 (#
b0z000 '#
1&#
1%#
0$#
b0 ##
b0 "#
b1111110 !#
b0 ~"
b0 }"
b0 |"
b1 {"
b1 z"
b11 y"
b10 x"
b10 w"
b0 v"
b0 u"
b10000 t"
b0 s"
b10000 r"
b0 q"
b10000 p"
b0 o"
b10000 n"
b0 m"
b10 l"
b11 k"
b101 j"
b1000 i"
b1111110000000000000000000000000000000000000000000000000000000000000000 h"
b1111110 g"
b0 f"
b1111110 e"
1d"
1c"
1b"
1a"
1`"
1_"
1^"
1]"
1\"
1["
0Z"
0Y"
0X"
0W"
0V"
0U"
0T"
0S"
0R"
b0 Q"
b0 P"
b0 O"
b1 N"
b0z0001 M"
b11 L"
b11 K"
b1001 J"
b1001 I"
b0z000 H"
1G"
1F"
0E"
b0 D"
b0 C"
b1111110 B"
b0 A"
b0 @"
b0 ?"
b1 >"
b1 ="
b11 <"
b10 ;"
b10 :"
b0 9"
b0 8"
b10000 7"
b0 6"
b10000 5"
b0 4"
b10000 3"
b0 2"
b10000 1"
b0 0"
b10 /"
b11 ."
b101 -"
b1000 ,"
b1111110000000000000000000000000000000000000000000000000000000000000000 +"
b1111110 *"
b0 )"
b1111110 ("
1'"
1&"
1%"
1$"
1#"
1""
1!"
1~
1}
1|
0{
0z
0y
0x
0w
0v
0u
0t
0s
b0 r
b0x q
b0x p
b1 o
b0z0001 n
b11 m
b1x l
b1001 k
b100x j
b0z000 i
1h
1g
0f
b0 e
b0 d
b1111110 c
0b
0a
0`
b1111110 _
b1111110 ^
b1111110 ]
0\
b0 [
b0 Z
xY
xX
1W
xV
0U
b1 T
1S
b0 R
b0 Q
b0 P
b0 O
b10 N
b100 M
b1 L
b10 K
b0 J
b1000000000000 I
b1 H
b0 G
b0 F
b0 E
1D
1C
0B
1A
0@
1?
0>
0=
0<
1;
1:
19
18
07
06
05
04
03
12
11
00
1/
1.
0-
1,
0+
x*
x)
x(
x'
0&
x%
x$
b1111110 #
b1111110 "
b1111110 !
$end
#1
b10xx j
b0xx q
b0xx p
b0xx o
b1x m
b100x k
b1 F
b1 G
b1 E
b0z00xx n
b0z00x i
b0x @"
b1 Z
b0x d
b0x r
b0x ?"
0,
#2
13
b1 T
b10 R
16
0D
b10 O
b1000000000 I
0W
1C
b1 H
0?
0.
1>
0:
b11 l
b0 K
01
17
10
b0 L
b11 N
b1001 j
b101 M
b0 @"
b0 q
b1 [
0%
1$
1(
1,
#3
b0x p
b1 o
b11 m
b1001 k
b0z0001 n
b0z000 i
b0 d
b0 r
b0 ?"
0,
#4
0(
1,
#5
b10 T
03
b10 H
15
b0 R
b10 P
b10000000000 I
b10 E
0,
1-
#6
1,
#7
b10 F
b10 G
b10 Z
b10 T
03
b10 H
15
b0 R
b10 P
b10000000000 I
b10 E
0,
0-
#8
b10 T
b10 H
15
1C
1X
1V
0S
1U
b10 P
16
1B
1@
1?
1D
1<
b10000000 I
b10 O
0A
08
0>
0/
1:
11
b0 N
b11 L
b110 M
b10 [
1,
#9
0,
#10
b10 l
b1000 j
b1 q
b1 p
1%
0$
1'
1)
1,
#11
b11 l
b1011 j
b10 q
b10 p
b10 o
b10 m
b1000 k
b0z0010 n
b0z001 i
b1 @"
b1 d
b1 r
b1 ?"
0,
#12
1,
#13
b1010 j
b10000 3"
1'"
b110000 #
b110000 _
b110000 c
b110000 ("
b11 q
b0 1"
b11000000000000000000000000000000000000000000000000000000000000 +"
b10000 5"
b110000 *"
b11 p
0&"
b0 7"
b11 o
b100 -"
b10 <"
1{
b11 :"
b0z0011 n
b0z000 i
b11 m
b10 @"
b11 /"
b10 ."
b11 ;"
b1011 k
b1001 ,"
b10 d
b10 r
b10 ?"
b1 e
b1 )"
b1 A"
0,
#14
1,
#15
1w
1t
1u
1z
1s
b1000 7"
b10 6"
b10 4"
b10 8"
b1101101 #
b1101101 _
b1101101 c
b1101101 ("
b11 l
b1000 9"
1x
b0 3"
1'"
b1101101 *"
b1101 j
b10 0"
b100 q
b1000 1"
b1000 5"
0|
b100 p
b11011010000000000000000000000000000000000000000000000000 +"
b0 >"
1&"
b100 o
b1010 k
b111 -"
b11 <"
b0 /"
b1 ."
b0z0100 n
b0z011 i
b11 @"
b1010 ,"
b10 e
b10 )"
b10 A"
b11 d
b11 r
b11 ?"
0,
#16
1,
#17
b10 l
1'"
1v
1w
1t
1u
1z
1s
b1111001 #
b1111001 _
b1111001 c
b1111001 ("
b1100 j
b10 2"
b1000 7"
b1000 5"
b10 6"
b10 4"
b10 8"
b101 q
b1111001 *"
b1000 3"
b1111001000000000000000000000000000000000000000000 +"
b1000 9"
0x
b101 p
0}
b0 0"
b0 1"
b101 o
b110 -"
b0 ="
1|
b11 m
b0z0101 n
b0z000 i
b100 @"
b1 /"
b0 ."
b1 >"
b1101 k
b1011 ,"
b100 d
b100 r
b100 ?"
b11 e
b11 )"
b11 A"
0,
#18
1,
#19
1'"
b110011 #
b110011 _
b110011 c
b110011 ("
1y
0w
0t
1z
1s
b110011 *"
b11 l
b0 7"
b0 6"
b10 8"
1v
b1111 j
b110 q
b100 5"
b11001100000000000000000000000000000000000 +"
b100 9"
b10 2"
0#"
b110 p
b100 3"
1}
b110 o
b10 m
b11 ="
b10 :"
b1100 k
b1 -"
b1 <"
b110 /"
b0 ;"
b11 >"
b0z0110 n
b0z001 i
b101 @"
b111 ."
b1100 ,"
b100 e
b100 )"
b100 A"
b101 d
b101 r
b101 ?"
0,
#20
1,
#21
1'"
b1011011 #
b1011011 _
b1011011 c
b1011011 ("
1w
1t
1v
1z
1s
b1110 j
b1011011 *"
b10 6"
0u
b100 3"
1y
b10 2"
b10 8"
b111 q
b100 7"
b10110110000000000000000000000000000 +"
b0 4"
b100 9"
b111 p
0~
b0 5"
b111 o
b0 -"
b0 <"
1#"
b11 :"
b0z0111 n
b0z000 i
b11 m
b110 @"
b111 /"
b110 ."
b1 ;"
b1111 k
b1101 ,"
b110 d
b110 r
b110 ?"
b101 e
b101 )"
b101 A"
0,
#22
1,
#23
b1011111 #
b1011111 _
b1011111 c
b1011111 ("
1'"
1x
1v
1z
b1011111 *"
b1 l
b10 1"
b1 0"
1w
1t
b10 3"
1y
b1 2"
b1 8"
b1 j
b1000 q
b1011111000000000000000000000 +"
b1 6"
b10 9"
0!"
b1000 p
b10 7"
b10 >"
1~
b1000 o
b1110 k
b11 -"
b1 <"
b100 /"
b101 ."
b0z1000 n
b0z111 i
b111 @"
b1110 ,"
b110 e
b110 )"
b110 A"
b111 d
b111 r
b111 ?"
0,
#24
1,
#25
1f
0h
1'"
1u
1z
1v
1t
b0 l
b1110000 #
b1110000 _
b1110000 c
b1110000 ("
b1 2"
b0 j
b1 4"
0x
0w
0y
b1110000 *"
0s
b10 3"
b1 6"
b1001 q
b10 5"
b0 1"
b111000000000000000000 +"
b0 0"
b0 8"
b10 7"
b1001 p
0""
b0 9"
b1001 o
b10 -"
b10 ="
1!"
b1 m
b0z000 i
b0z1001 n
b1000 @"
b101 /"
b100 ."
b11 >"
b1 k
b1111 ,"
b1000 d
b1000 r
b1000 ?"
b111 e
b111 )"
b111 A"
0,
#26
1,
#27
1w
1y
1s
0f
b1111111 #
b1111111 _
b1111111 c
b1111111 ("
1'"
1h
1x
b1 8"
1z
1v
1t
b1111111 *"
b1 2"
b11 l
b1 0"
b1 9"
1u
b1 3"
b1 6"
b1001 j
b0 q
b1 1"
b11111110000000 +"
b1 4"
b1 7"
b10 K"
0$"
b0 p
0g
b1 5"
b1000 I"
1""
b11 ="
b0 o
b0 m
b0 :"
b0 k
b1 P"
b1101 -"
b11 <"
b1010 /"
b10 ;"
b11 >"
b0z1010 n
b0z001 i
b1001 @"
b1011 ."
b0 ,"
b1 O"
b1000 e
b1000 )"
b1000 A"
b1001 d
b1001 r
b1001 ?"
1`
0,
#28
1,
#29
b10 l
b1000 j
b1111011 #
b1111011 _
b1111011 c
b1111011 ("
1'"
b1 q
1w
1y
1s
1u
1z
1v
1t
b1111011 *"
b1 2"
b1 p
0x
b1 7"
b1 5"
b1 3"
b1 8"
b1 4"
b1 6"
b1 o
b1111011 +"
b0 0"
b1 9"
1g
0%"
b0 1"
b11 m
b1100 -"
b10 <"
1$"
b10 N"
b10 L"
b1 :"
b1000 J"
b0z000 i
b1001 k
b0z0001 n
b0 @"
b1011 /"
b1010 ."
b11 ;"
b0z0010 M"
b0z001 H"
b1 }"
b1 ,"
0`
b0 d
b0 r
b0 ?"
b1001 e
b1001 )"
b1001 A"
b1 C"
b1 Q"
b1 |"
0,
#30
1,
#31
0w
0y
0s
0u
0z
0v
0t
b0 2"
b0 8"
b0 4"
b0 6"
b11 l
b10000 p"
1d"
b110000 "
b110000 ^
b110000 B"
b110000 e"
b0 9"
b1111110 #
b1111110 _
b1111110 c
b1111110 ("
b10000 3"
0x
b1011 j
b10 q
b0 n"
b11000000000000000000000000000000000000000000000000000000000000 h"
b10000 r"
b110000 g"
b1111110 *"
b10000 5"
b0 0"
0c"
1%"
b10 p
b0 t"
b1111110000000000000000000000000000000000000000000000000000000000000000 +"
b10000 7"
b10000 1"
b100 j"
b10 y"
1Z"
1&"
b11 <"
0{
1$"
b10 o
b10 m
b11 w"
b1 ="
b10 :"
b1000 k
b11 l"
b10 k"
b11 x"
b101 -"
b1 >"
b10 /"
b10 ;"
b0z0010 n
b0z001 i
b1 @"
b1001 i"
b11 ."
b1000 ,"
b1 D"
b1 f"
b1 ~"
b0 e
b0 )"
b0 A"
b1 d
b1 r
b1 ?"
0,
#32
1,
#33
b1010 j
b10000 3"
1'"
b110000 #
b110000 _
b110000 c
b110000 ("
b11 q
b0 1"
b11000000000000000000000000000000000000000000000000000000000000 +"
b10000 5"
b110000 *"
b11 p
0&"
b0 7"
b11 o
b100 -"
b10 <"
1{
b11 :"
b0z0011 n
b0z000 i
b11 m
b10 @"
b11 /"
b10 ."
b11 ;"
b1011 k
b1001 ,"
b10 d
b10 r
b10 ?"
b1 e
b1 )"
b1 A"
0,
#34
1,
#35
1w
1t
1u
1z
1s
b1000 7"
b10 6"
b10 4"
b10 8"
b1101101 #
b1101101 _
b1101101 c
b1101101 ("
b11 l
b1000 9"
1x
b0 3"
1'"
b1101101 *"
b1101 j
b10 0"
b100 q
b1000 1"
b1000 5"
0|
b100 p
b11011010000000000000000000000000000000000000000000000000 +"
b0 >"
1&"
b100 o
b1010 k
b111 -"
b11 <"
b0 /"
b1 ."
b0z0100 n
b0z011 i
b11 @"
b1010 ,"
b10 e
b10 )"
b10 A"
b11 d
b11 r
b11 ?"
0,
#36
1,
#37
b10 l
1'"
1v
1w
1t
1u
1z
1s
b1111001 #
b1111001 _
b1111001 c
b1111001 ("
b1100 j
b10 2"
b1000 7"
b1000 5"
b10 6"
b10 4"
b10 8"
b101 q
b1111001 *"
b1000 3"
b1111001000000000000000000000000000000000000000000 +"
b1000 9"
0x
b101 p
0}
b0 0"
b0 1"
b101 o
b110 -"
b0 ="
1|
b11 m
b0z0101 n
b0z000 i
b100 @"
b1 /"
b0 ."
b1 >"
b1101 k
b1011 ,"
b100 d
b100 r
b100 ?"
b11 e
b11 )"
b11 A"
0,
#38
1,
#39
1'"
b110011 #
b110011 _
b110011 c
b110011 ("
1y
0w
0t
1z
1s
b110011 *"
b11 l
b0 7"
b0 6"
b10 8"
1v
b1111 j
b110 q
b100 5"
b11001100000000000000000000000000000000000 +"
b100 9"
b10 2"
0#"
b110 p
b100 3"
1}
b110 o
b10 m
b11 ="
b10 :"
b1100 k
b1 -"
b1 <"
b110 /"
b0 ;"
b11 >"
b0z0110 n
b0z001 i
b101 @"
b111 ."
b1100 ,"
b100 e
b100 )"
b100 A"
b101 d
b101 r
b101 ?"
0,
#40
1,
#41
1'"
b1011011 #
b1011011 _
b1011011 c
b1011011 ("
1w
1t
1v
1z
1s
b1110 j
b1011011 *"
b10 6"
0u
b100 3"
1y
b10 2"
b10 8"
b111 q
b100 7"
b10110110000000000000000000000000000 +"
b0 4"
b100 9"
b111 p
0~
b0 5"
b111 o
b0 -"
b0 <"
1#"
b11 :"
b0z0111 n
b0z000 i
b11 m
b110 @"
b111 /"
b110 ."
b1 ;"
b1111 k
b1101 ,"
b110 d
b110 r
b110 ?"
b101 e
b101 )"
b101 A"
0,
#42
1,
#43
b1011111 #
b1011111 _
b1011111 c
b1011111 ("
1'"
1x
1v
1z
b1011111 *"
b1 l
b10 1"
b1 0"
1w
1t
b10 3"
1y
b1 2"
b1 8"
b1 j
b1000 q
b1011111000000000000000000000 +"
b1 6"
b10 9"
0!"
b1000 p
b10 7"
b10 >"
1~
b1000 o
b1110 k
b11 -"
b1 <"
b100 /"
b101 ."
b0z1000 n
b0z111 i
b111 @"
b1110 ,"
b110 e
b110 )"
b110 A"
b111 d
b111 r
b111 ?"
0,
#44
1,
#45
1f
0h
1'"
1u
1z
1v
1t
b0 l
b1110000 #
b1110000 _
b1110000 c
b1110000 ("
b1 2"
b0 j
b1 4"
0x
0w
0y
b1110000 *"
0s
b10 3"
b1 6"
b1001 q
b10 5"
b0 1"
b111000000000000000000 +"
b0 0"
b0 8"
b10 7"
b1001 p
0""
b0 9"
b1001 o
b10 -"
b10 ="
1!"
b1 m
b0z000 i
b0z1001 n
b1000 @"
b101 /"
b100 ."
b11 >"
b1 k
b1111 ,"
b1000 d
b1000 r
b1000 ?"
b111 e
b111 )"
b111 A"
0,
#46
1,
#47
1w
1y
1s
0f
b1111111 #
b1111111 _
b1111111 c
b1111111 ("
1'"
1h
1x
b1 8"
1z
1v
1t
b1111111 *"
b1 2"
b11 l
b1 0"
b1 9"
1u
b1 3"
b1 6"
b1001 j
b0 q
b1 1"
b11111110000000 +"
b1 4"
b1 7"
0$"
b0 p
0g
b1 5"
b11 K"
1""
b11 ="
b0 o
b0 m
b1011 I"
b0 :"
b0 k
b10 P"
b1101 -"
b11 <"
b1010 /"
b10 ;"
b11 >"
b0z1010 n
b0z001 i
b1001 @"
b1011 ."
b0 ,"
b10 O"
b1000 e
b1000 )"
b1000 A"
b1001 d
b1001 r
b1001 ?"
1`
0,
#48
1,
#49
b10 l
b1000 j
b1111011 #
b1111011 _
b1111011 c
b1111011 ("
1'"
b1 q
1w
1y
1s
1u
1z
1v
1t
b1111011 *"
b1 2"
b1 p
0x
b1 7"
b1 5"
b1 3"
b1 8"
b1 4"
b1 6"
b1 o
b1111011 +"
b0 0"
b1 9"
1g
0%"
b0 1"
b11 m
b1100 -"
b10 <"
1$"
b11 N"
b1 :"
b0z000 i
b1001 k
b0z0001 n
b0 @"
b1011 /"
b1010 ."
b11 ;"
b0z0011 M"
b0z000 H"
b11 L"
b10 }"
b1 ,"
b1011 J"
0`
b0 d
b0 r
b0 ?"
b1001 e
b1001 )"
b1001 A"
b10 C"
b10 Q"
b10 |"
0,
#50
1,
#51
1V"
1S"
1T"
1Y"
1R"
0w
0y
0s
0u
0z
0v
0t
b0 2"
b1000 t"
b10 s"
b10 q"
b10 u"
b0 8"
b0 4"
b0 6"
b1101101 "
b1101101 ^
b1101101 B"
b1101101 e"
b11 l
b1000 v"
1W"
b0 p"
1d"
b1101101 g"
b0 9"
b1111110 #
b1111110 _
b1111110 c
b1111110 ("
b10000 3"
0x
b1011 j
b10 m"
b10 q
b1000 n"
b1000 r"
b1111110 *"
b10000 5"
b0 0"
0["
1%"
b10 p
b11011010000000000000000000000000000000000000000000000000 h"
b1111110000000000000000000000000000000000000000000000000000000000000000 +"
b10000 7"
b10000 1"
b0 {"
1c"
1&"
b11 <"
0{
1$"
b10 o
b10 m
b1 ="
b10 :"
b1000 k
b111 j"
b11 y"
b0 l"
b1 k"
b101 -"
b1 >"
b10 /"
b10 ;"
b0z0010 n
b0z001 i
b1 @"
b1010 i"
b11 ."
b1000 ,"
b10 D"
b10 f"
b10 ~"
b0 e
b0 )"
b0 A"
b1 d
b1 r
b1 ?"
0,
#52
1,
#53
b1010 j
b10000 3"
1'"
b110000 #
b110000 _
b110000 c
b110000 ("
b11 q
b0 1"
b11000000000000000000000000000000000000000000000000000000000000 +"
b10000 5"
b110000 *"
b11 p
0&"
b0 7"
b11 o
b100 -"
b10 <"
1{
b11 :"
b0z0011 n
b0z000 i
b11 m
b10 @"
b11 /"
b10 ."
b11 ;"
b1011 k
b1001 ,"
b10 d
b10 r
b10 ?"
b1 e
b1 )"
b1 A"
0,
#54
1,
#55
1w
1t
1u
1z
1s
b1000 7"
b10 6"
b10 4"
b10 8"
b1101101 #
b1101101 _
b1101101 c
b1101101 ("
b11 l
b1000 9"
1x
b0 3"
1'"
b1101101 *"
b1101 j
b10 0"
b100 q
b1000 1"
b1000 5"
0|
b100 p
b11011010000000000000000000000000000000000000000000000000 +"
b0 >"
1&"
b100 o
b1010 k
b111 -"
b11 <"
b0 /"
b1 ."
b0z0100 n
b0z011 i
b11 @"
b1010 ,"
b10 e
b10 )"
b10 A"
b11 d
b11 r
b11 ?"
0,
#56
1,
#57
b10 l
1'"
1v
1w
1t
1u
1z
1s
b1111001 #
b1111001 _
b1111001 c
b1111001 ("
b1100 j
b10 2"
b1000 7"
b1000 5"
b10 6"
b10 4"
b10 8"
b101 q
b1111001 *"
b1000 3"
b1111001000000000000000000000000000000000000000000 +"
b1000 9"
0x
b101 p
0}
b0 0"
b0 1"
b101 o
b110 -"
b0 ="
1|
b11 m
b0z0101 n
b0z000 i
b100 @"
b1 /"
b0 ."
b1 >"
b1101 k
b1011 ,"
b100 d
b100 r
b100 ?"
b11 e
b11 )"
b11 A"
0,
#58
1,
