simulacoes/vcd/adc.vcd
$date
	Mon Jul 17 13:32:00 2023
$end
$version
	Icarus Verilog
$end
$timescale
	1s
$end
$scope module adc_tb $end
$var wire 7 ! sgm2 [6:0] $end
$var wire 7 " sgm1 [6:0] $end
$var wire 7 # sgm0 [6:0] $end
$var wire 1 $ rst_s $end
$var wire 1 % ld $end
$var wire 1 & enb_3 $end
$var wire 1 ' enb_0 $end
$var wire 1 ( ch_zr $end
$var wire 1 ) ch_vm $end
$var wire 1 * ch_ref $end
$var reg 1 + Vint_z $end
$var reg 1 , ck $end
$var reg 1 - inicio $end
$scope module control $end
$var wire 1 + Vint_z $end
$var wire 1 . _007_ $end
$var wire 1 / _008_ $end
$var wire 1 0 _009_ $end
$var wire 1 1 _010_ $end
$var wire 1 2 _012_ $end
$var wire 1 3 _014_ $end
$var wire 1 4 _016_ $end
$var wire 1 5 _018_ $end
$var wire 1 6 _019_ $end
$var wire 1 7 _023_ $end
$var wire 1 8 _024_ $end
$var wire 1 9 _025_ $end
$var wire 1 : _026_ $end
$var wire 1 ; _028_ $end
$var wire 1 < _030_ $end
$var wire 1 = _037_ $end
$var wire 1 > _038_ $end
$var wire 1 ? _039_ $end
$var wire 1 @ _040_ $end
$var wire 1 A _041_ $end
$var wire 1 , ck $end
$var wire 1 - inicio $end
$var wire 1 & enb_3 $end
$var wire 3 B _036_ [2:0] $end
$var wire 3 C _035_ [2:0] $end
$var wire 3 D _034_ [2:0] $end
$var wire 3 E _033_ [2:0] $end
$var wire 15 F _032_ [14:0] $end
$var wire 2 G _031_ [1:0] $end
$var wire 2 H _029_ [1:0] $end
$var wire 2 I _027_ [1:0] $end
$var wire 3 J _022_ [2:0] $end
$var wire 3 K _021_ [2:0] $end
$var wire 3 L _020_ [2:0] $end
$var wire 2 M _017_ [1:0] $end
$var wire 2 N _015_ [1:0] $end
$var wire 2 O _013_ [1:0] $end
$var wire 2 P _011_ [1:0] $end
$var wire 1 Q _006_ $end
$var wire 3 R _005_ [2:0] $end
$var wire 1 S _004_ $end
$var wire 1 T _003_ $end
$var wire 1 U _002_ $end
$var wire 1 V _001_ $end
$var wire 1 W _000_ $end
$var reg 1 * ch_ref $end
$var reg 1 ) ch_vm $end
$var reg 1 ( ch_zr $end
$var reg 1 ' enb_0 $end
$var reg 1 % ld $end
$var reg 3 X next_state [2:0] $end
$var reg 1 $ rst_s $end
$var reg 3 Y state [2:0] $end
$upscope $end
$scope module counter $end
$var wire 1 Z aux_1 $end
$var wire 1 , ck $end
$var wire 1 & cnt_max $end
$var wire 1 ' enb $end
$var wire 1 % ld $end
$var wire 1 $ rst_s $end
$var wire 7 [ sgm2 [6:0] $end
$var wire 7 \ sgm1 [6:0] $end
$var wire 7 ] sgm0 [6:0] $end
$var wire 1 ^ enb_2 $end
$var wire 1 _ enb_1 $end
$var wire 1 ` aux_2 $end
$scope module bloco1 $end
$var wire 1 , ck $end
$var wire 1 ' enb $end
$var wire 1 % ld $end
$var wire 1 $ rst_s $end
$var wire 7 a sgm [6:0] $end
$var wire 4 b qx [3:0] $end
$var wire 4 c qs [3:0] $end
$var wire 1 _ cnt_max $end
$scope module contador $end
$var wire 1 d _00_ $end
$var wire 1 e _09_ $end
$var wire 1 f _10_ $end
$var wire 1 , ck $end
$var wire 1 ' enb $end
$var wire 1 $ rst_s $end
$var wire 32 g _11_ [31:0] $end
$var wire 4 h _08_ [3:0] $end
$var wire 4 i _07_ [3:0] $end
$var wire 2 j _06_ [1:0] $end
$var wire 2 k _05_ [1:0] $end
$var wire 32 l _04_ [31:0] $end
$var wire 4 m _03_ [3:0] $end
$var wire 4 n _02_ [3:0] $end
$var wire 4 o _01_ [3:0] $end
$var reg 1 _ cnt_max $end
$var reg 4 p q [3:0] $end
$upscope $end
$scope module conversor $end
$var wire 1 q _007_ $end
$var wire 1 r _010_ $end
$var wire 1 s _013_ $end
$var wire 1 t _016_ $end
$var wire 1 u _017_ $end
$var wire 1 v _020_ $end
$var wire 1 w _021_ $end
$var wire 1 x _022_ $end
$var wire 1 y _023_ $end
$var wire 1 z _028_ $end
$var wire 1 { _029_ $end
$var wire 1 | _030_ $end
$var wire 1 } _031_ $end
$var wire 1 ~ _032_ $end
$var wire 1 !" _033_ $end
$var wire 1 "" _034_ $end
$var wire 1 #" _035_ $end
$var wire 1 $" _036_ $end
$var wire 1 %" _039_ $end
$var wire 7 &" sgm [6:0] $end
$var wire 4 '" bcd [3:0] $end
$var wire 7 (" _038_ [6:0] $end
$var wire 70 )" _037_ [69:0] $end
$var wire 4 *" _027_ [3:0] $end
$var wire 4 +" _026_ [3:0] $end
$var wire 4 ," _025_ [3:0] $end
$var wire 4 -" _024_ [3:0] $end
$var wire 2 ." _019_ [1:0] $end
$var wire 5 /" _018_ [4:0] $end
$var wire 2 0" _015_ [1:0] $end
$var wire 5 1" _014_ [4:0] $end
$var wire 2 2" _012_ [1:0] $end
$var wire 5 3" _011_ [4:0] $end
$var wire 2 4" _009_ [1:0] $end
$var wire 5 5" _008_ [4:0] $end
$var wire 2 6" _006_ [1:0] $end
$var wire 5 7" _005_ [4:0] $end
$var wire 2 8" _004_ [1:0] $end
$var wire 2 9" _003_ [1:0] $end
$var wire 2 :" _002_ [1:0] $end
$var wire 2 ;" _001_ [1:0] $end
$var wire 2 <" _000_ [1:0] $end
$upscope $end
$scope module registrador $end
$var wire 1 , ck $end
$var wire 4 =" d [3:0] $end
$var wire 1 % ld $end
$var wire 4 >" _0_ [3:0] $end
$var reg 4 ?" q [3:0] $end
$upscope $end
$upscope $end
$scope module bloco2 $end
$var wire 1 , ck $end
$var wire 1 _ enb $end
$var wire 1 % ld $end
$var wire 1 $ rst_s $end
$var wire 7 @" sgm [6:0] $end
$var wire 4 A" qx [3:0] $end
$var wire 4 B" qs [3:0] $end
$var wire 1 ^ cnt_max $end
$scope module contador $end
$var wire 1 C" _00_ $end
$var wire 1 D" _09_ $end
$var wire 1 E" _10_ $end
$var wire 1 , ck $end
$var wire 1 _ enb $end
$var wire 1 $ rst_s $end
$var wire 32 F" _11_ [31:0] $end
$var wire 4 G" _08_ [3:0] $end
$var wire 4 H" _07_ [3:0] $end
$var wire 2 I" _06_ [1:0] $end
$var wire 2 J" _05_ [1:0] $end
$var wire 32 K" _04_ [31:0] $end
$var wire 4 L" _03_ [3:0] $end
$var wire 4 M" _02_ [3:0] $end
$var wire 4 N" _01_ [3:0] $end
$var reg 1 ^ cnt_max $end
$var reg 4 O" q [3:0] $end
$upscope $end
$scope module conversor $end
$var wire 1 P" _007_ $end
$var wire 1 Q" _010_ $end
$var wire 1 R" _013_ $end
$var wire 1 S" _016_ $end
$var wire 1 T" _017_ $end
$var wire 1 U" _020_ $end
$var wire 1 V" _021_ $end
$var wire 1 W" _022_ $end
$var wire 1 X" _023_ $end
$var wire 1 Y" _028_ $end
$var wire 1 Z" _029_ $end
$var wire 1 [" _030_ $end
$var wire 1 \" _031_ $end
$var wire 1 ]" _032_ $end
$var wire 1 ^" _033_ $end
$var wire 1 _" _034_ $end
$var wire 1 `" _035_ $end
$var wire 1 a" _036_ $end
$var wire 1 b" _039_ $end
$var wire 7 c" sgm [6:0] $end
$var wire 4 d" bcd [3:0] $end
$var wire 7 e" _038_ [6:0] $end
$var wire 70 f" _037_ [69:0] $end
$var wire 4 g" _027_ [3:0] $end
$var wire 4 h" _026_ [3:0] $end
$var wire 4 i" _025_ [3:0] $end
$var wire 4 j" _024_ [3:0] $end
$var wire 2 k" _019_ [1:0] $end
$var wire 5 l" _018_ [4:0] $end
$var wire 2 m" _015_ [1:0] $end
$var wire 5 n" _014_ [4:0] $end
$var wire 2 o" _012_ [1:0] $end
$var wire 5 p" _011_ [4:0] $end
$var wire 2 q" _009_ [1:0] $end
$var wire 5 r" _008_ [4:0] $end
$var wire 2 s" _006_ [1:0] $end
$var wire 5 t" _005_ [4:0] $end
$var wire 2 u" _004_ [1:0] $end
$var wire 2 v" _003_ [1:0] $end
$var wire 2 w" _002_ [1:0] $end
$var wire 2 x" _001_ [1:0] $end
$var wire 2 y" _000_ [1:0] $end
$upscope $end
$scope module registrador $end
$var wire 1 , ck $end
$var wire 4 z" d [3:0] $end
$var wire 1 % ld $end
$var wire 4 {" _0_ [3:0] $end
$var reg 4 |" q [3:0] $end
$upscope $end
$upscope $end
$scope module bloco3 $end
$var wire 1 , ck $end
$var wire 1 Z enb $end
$var wire 1 % ld $end
$var wire 1 $ rst_s $end
$var wire 7 }" sgm [6:0] $end
$var wire 4 ~" qx [3:0] $end
$var wire 4 !# qs [3:0] $end
$var wire 1 ` cnt_max $end
$scope module contador $end
$var wire 1 "# _00_ $end
$var wire 1 ## _09_ $end
$var wire 1 $# _10_ $end
$var wire 1 , ck $end
$var wire 1 Z enb $end
$var wire 1 $ rst_s $end
$var wire 32 %# _11_ [31:0] $end
$var wire 4 &# _08_ [3:0] $end
$var wire 4 '# _07_ [3:0] $end
$var wire 2 (# _06_ [1:0] $end
$var wire 2 )# _05_ [1:0] $end
$var wire 32 *# _04_ [31:0] $end
$var wire 4 +# _03_ [3:0] $end
$var wire 4 ,# _02_ [3:0] $end
$var wire 4 -# _01_ [3:0] $end
$var reg 1 ` cnt_max $end
$var reg 4 .# q [3:0] $end
$upscope $end
$scope module conversor $end
$var wire 1 /# _007_ $end
$var wire 1 0# _010_ $end
$var wire 1 1# _013_ $end
$var wire 1 2# _016_ $end
$var wire 1 3# _017_ $end
$var wire 1 4# _020_ $end
$var wire 1 5# _021_ $end
$var wire 1 6# _022_ $end
$var wire 1 7# _023_ $end
$var wire 1 8# _028_ $end
$var wire 1 9# _029_ $end
$var wire 1 :# _030_ $end
$var wire 1 ;# _031_ $end
$var wire 1 <# _032_ $end
$var wire 1 =# _033_ $end
$var wire 1 ># _034_ $end
$var wire 1 ?# _035_ $end
$var wire 1 @# _036_ $end
$var wire 1 A# _039_ $end
$var wire 7 B# sgm [6:0] $end
$var wire 4 C# bcd [3:0] $end
$var wire 7 D# _038_ [6:0] $end
$var wire 70 E# _037_ [69:0] $end
$var wire 4 F# _027_ [3:0] $end
$var wire 4 G# _026_ [3:0] $end
$var wire 4 H# _025_ [3:0] $end
$var wire 4 I# _024_ [3:0] $end
$var wire 2 J# _019_ [1:0] $end
$var wire 5 K# _018_ [4:0] $end
$var wire 2 L# _015_ [1:0] $end
$var wire 5 M# _014_ [4:0] $end
$var wire 2 N# _012_ [1:0] $end
$var wire 5 O# _011_ [4:0] $end
$var wire 2 P# _009_ [1:0] $end
$var wire 5 Q# _008_ [4:0] $end
$var wire 2 R# _006_ [1:0] $end
$var wire 5 S# _005_ [4:0] $end
$var wire 2 T# _004_ [1:0] $end
$var wire 2 U# _003_ [1:0] $end
$var wire 2 V# _002_ [1:0] $end
$var wire 2 W# _001_ [1:0] $end
$var wire 2 X# _000_ [1:0] $end
$upscope $end
$scope module registrador $end
$var wire 1 , ck $end
$var wire 4 Y# d [3:0] $end
$var wire 1 % ld $end
$var wire 4 Z# _0_ [3:0] $end
$var reg 4 [# q [3:0] $end
$upscope $end
$upscope $end
$upscope $end
$upscope $end
$enddefinitions $end
#0
$dumpvars
b0 [#
b0 Z#
b0 Y#
b1 X#
b1 W#
b11 V#
b10 U#
b10 T#
b0 S#
b0 R#
b10000 Q#
b0 P#
b10000 O#
b0 N#
b10000 M#
b0 L#
b10000 K#
b0 J#
b10 I#
b11 H#
b101 G#
b1000 F#
b1111110000000000000000000000000000000000000000000000000000000000000000 E#
b1111110 D#
b0 C#
b1111110 B#
1A#
1@#
1?#
1>#
1=#
1<#
1;#
1:#
19#
18#
07#
06#
05#
04#
03#
02#
01#
00#
0/#
b0 .#
b0 -#
b0 ,#
b1 +#
b0z0001 *#
b11 )#
b11 (#
b1001 '#
b1001 &#
b0z000 %#
1$#
1##
0"#
b0 !#
b0 ~"
b1111110 }"
b0 |"
b0 {"
b0 z"
b1 y"
b1 x"
b11 w"
b10 v"
b10 u"
b0 t"
b0 s"
b10000 r"
b0 q"
b10000 p"
b0 o"
b10000 n"
b0 m"
b10000 l"
b0 k"
b10 j"
b11 i"
b101 h"
b1000 g"
b1111110000000000000000000000000000000000000000000000000000000000000000 f"
b1111110 e"
b0 d"
b1111110 c"
1b"
1a"
1`"
1_"
1^"
1]"
1\"
1["
1Z"
1Y"
0X"
0W"
0V"
0U"
0T"
0S"
0R"
0Q"
0P"
b0 O"
b0 N"
b0 M"
b1 L"
b0z0001 K"
b11 J"
b11 I"
b1001 H"
b1001 G"
b0z000 F"
1E"
1D"
0C"
b0 B"
b0 A"
b1111110 @"
b0 ?"
b0 >"
b0 ="
b1 <"
b1 ;"
b11 :"
b10 9"
b10 8"
b0 7"
b0 6"
b10000 5"
b0 4"
b10000 3"
b0 2"
b10000 1"
b0 0"
b10000 /"
b0 ."
b10 -"
b11 ,"
b101 +"
b1000 *"
b1111110000000000000000000000000000000000000000000000000000000000000000 )"
b1111110 ("
b0 '"
b1111110 &"
1%"
1$"
1#"
1""
1!"
1~
1}
1|
1{
1z
0y
0x
0w
0v
0u
0t
0s
0r
0q
b0 p
b0x o
b0x n
b1 m
b0z0001 l
b11 k
b1x j
b1001 i
b100x h
b0z000 g
1f
1e
0d
b0 c
b0 b
b1111110 a
0`
0_
0^
b1111110 ]
b1111110 \
b1111110 [
0Z
b0 Y
b0 X
xW
xV
1U
xT
0S
b1 R
1Q
b0 P
b0 O
b0 N
b0 M
b100 L
b10 K
b11 J
b10 I
b0 H
b0 G
b1000000000000 F
b1 E
bx00 D
b0 C
b0 B
1A
1@
0?
0>
1=
0<
0;
1:
19
18
17
06
05
04
03
02
11
10
0/
1.
0-
1,
x+
x*
x)
x(
x'
0&
x%
x$
b1111110 #
b1111110 "
b1111110 !
$end
#1
b0xx n
b11 j
b0xx m
b1x k
b1001 h
b100x i
b1 C
bx0x D
b1 B
b0z00xx l
b0z00x g
b0 o
1(
1$
0%
b1 X
b0x b
b0x p
b0x ="
0,
#2
1,
#3
12
b1 R
b10 P
15
b10 M
b0x n
b1000000000 F
0U
0Q
1@
b1 E
0A
1;
07
b1 m
b11 k
b0 I
0.
b1001 i
16
b0z0001 l
b0z000 g
1/
b10 J
b11 K
b101 L
b0 b
b0 p
b0 ="
b1 Y
0,
#4
1,
#5
b1x j
b100x h
b0x o
0(
0$
b10 R
02
b10 E
14
b0 P
b10 N
b10000000000 F
b1 D
b10 B
0,
0+
1-
#6
1,
#7
b10xx h
b0xx o
b0xx n
b0xx m
b1x k
b100x i
b0z00xx l
b0z00x g
b10 C
b10 D
b0x b
b0x p
b0x ="
b10 X
0,
#8
1,
#9
b10 R
b1xxx h
b0xxx o
b10 E
14
1V
1T
1@
1?
1>
b0xxx n
b10 N
15
b10 H
b0xxx m
b10000000 F
b10 M
0=
09
0;
00
b0z0xxx l
17
b1 J
1.
b0 K
b0z0xx g
b110 L
b10xx i
b10 Y
b0xx b
b0xx p
b0xx ="
0,
#10
1,
#11
xd
xf
bx j
bx h
bx o
bx n
bx m
b0zxxxx l
b0zxxx g
b1xxx i
b0xxx b
b0xxx p
b0xxx ="
1'
1)
0,
#12
1,
#13
b1x I"
xe
b100x G"
bx k
b0x N"
bx i
b0x M"
x_
bx b
bx p
bx ="
0,
#14
1,
#15
b10xx G"
b0xx N"
b0xx M"
b0xx L"
b1x J"
b100x H"
b0z00xx K"
b0z00x F"
b0x A"
b0x O"
b0x z"
0,
#16
1,
#17
b1xxx G"
b0xxx N"
b0xxx M"
b0xxx L"
b0z0xxx K"
b0z0xx F"
b10xx H"
b0xx A"
b0xx O"
b0xx z"
0,
#18
1,
#19
xC"
xE"
bx I"
bx G"
bx N"
bx M"
bx L"
b0zxxxx K"
b0zxxx F"
b1xxx H"
b0xxx A"
b0xxx O"
b0xxx z"
0,
#20
1,
#21
b1x (#
b100x &#
xD"
b0x -#
bx J"
b0x ,#
bx H"
xZ
x^
bx A"
bx O"
bx z"
0,
#22
1,
#23
b10xx &#
b0xx -#
b0xx ,#
b0xx +#
b1x )#
b100x '#
b0z00xx *#
b0z00x %#
b0x ~"
b0x .#
b0x Y#
0,
#24
1,
#25
b1xxx &#
b0xxx -#
b0xxx ,#
b0xxx +#
b0z0xxx *#
b0z0xx %#
b10xx '#
b0xx ~"
b0xx .#
b0xx Y#
0,
#26
1,
#27
x"#
x$#
bx (#
bx &#
bx -#
bx ,#
bx +#
b0zxxxx *#
b0zxxx %#
b1xxx '#
b0xxx ~"
b0xxx .#
b0xxx Y#
0,
#28
1,
#29
b1x R
b1x E
x2
bx0 P
x##
b1x000000 F
bx )#
b1x C
bx '#
x&
x`
bx ~"
bx .#
bx Y#
0,
#30
1,
#31
b1x D
b1x X
0,
#32
1,
#33
b0xx R
b0xx E
x4
x@
x5
bx N
bx P
b0xx0xx000 F
xV
xT
bx M
x?
x>
bx0 G
x:
bx0 H
x1
x9
x0
b0x J
b0x K
b11x L
b1x Y
0,
#34
1,
#35
b0xx C
b0xx D
b0xx X
x'
x)
0,
#36
1,
#37
xQ
xU
xA
b0x0x00xx0xx000 F
x=
x;
bx0 I
x7
x6
b0xx J
x.
x/
b0xx K
b1xx L
b0xx Y
0,
#38
1,
#39
x$
x(
0,
