simulacoes/vcd/bcd.vcd
$date
	Mon Jul 17 13:30:25 2023
$end
$version
	Icarus Verilog
$end
$timescale
	1s
$end
$scope module bcd_tb $end
$var wire 7 ! sgm2 [6:0] $end
$var wire 7 " sgm1 [6:0] $end
$var wire 7 # sgm0 [6:0] $end
$var wire 1 $ enb_3 $end
$var reg 1 % Vint_z $end
$var reg 1 & ck $end
$var reg 1 ' inicio $end
$scope module counter $end
$var wire 1 ( aux_1 $end
$var wire 1 & ck $end
$var wire 1 $ cnt_max $end
$var wire 1 ) enb $end
$var wire 1 * ld $end
$var wire 1 + rst_s $end
$var wire 7 , sgm2 [6:0] $end
$var wire 7 - sgm1 [6:0] $end
$var wire 7 . sgm0 [6:0] $end
$var wire 1 / enb_2 $end
$var wire 1 0 enb_1 $end
$var wire 1 1 aux_2 $end
$scope module bloco1 $end
$var wire 1 & ck $end
$var wire 1 ) enb $end
$var wire 1 * ld $end
$var wire 1 + rst_s $end
$var wire 7 2 sgm [6:0] $end
$var wire 4 3 qx [3:0] $end
$var wire 4 4 qs [3:0] $end
$var wire 1 0 cnt_max $end
$scope module contador $end
$var wire 1 5 _00_ $end
$var wire 1 6 _09_ $end
$var wire 1 7 _10_ $end
$var wire 1 & ck $end
$var wire 1 ) enb $end
$var wire 1 + rst_s $end
$var wire 32 8 _11_ [31:0] $end
$var wire 4 9 _08_ [3:0] $end
$var wire 4 : _07_ [3:0] $end
$var wire 2 ; _06_ [1:0] $end
$var wire 2 < _05_ [1:0] $end
$var wire 32 = _04_ [31:0] $end
$var wire 4 > _03_ [3:0] $end
$var wire 4 ? _02_ [3:0] $end
$var wire 4 @ _01_ [3:0] $end
$var reg 1 0 cnt_max $end
$var reg 4 A q [3:0] $end
$upscope $end
$scope module conversor $end
$var wire 1 B _007_ $end
$var wire 1 C _010_ $end
$var wire 1 D _013_ $end
$var wire 1 E _016_ $end
$var wire 1 F _017_ $end
$var wire 1 G _020_ $end
$var wire 1 H _021_ $end
$var wire 1 I _022_ $end
$var wire 1 J _023_ $end
$var wire 1 K _028_ $end
$var wire 1 L _029_ $end
$var wire 1 M _030_ $end
$var wire 1 N _031_ $end
$var wire 1 O _032_ $end
$var wire 1 P _033_ $end
$var wire 1 Q _034_ $end
$var wire 1 R _035_ $end
$var wire 1 S _036_ $end
$var wire 1 T _039_ $end
$var wire 7 U sgm [6:0] $end
$var wire 4 V bcd [3:0] $end
$var wire 7 W _038_ [6:0] $end
$var wire 70 X _037_ [69:0] $end
$var wire 4 Y _027_ [3:0] $end
$var wire 4 Z _026_ [3:0] $end
$var wire 4 [ _025_ [3:0] $end
$var wire 4 \ _024_ [3:0] $end
$var wire 2 ] _019_ [1:0] $end
$var wire 5 ^ _018_ [4:0] $end
$var wire 2 _ _015_ [1:0] $end
$var wire 5 ` _014_ [4:0] $end
$var wire 2 a _012_ [1:0] $end
$var wire 5 b _011_ [4:0] $end
$var wire 2 c _009_ [1:0] $end
$var wire 5 d _008_ [4:0] $end
$var wire 2 e _006_ [1:0] $end
$var wire 5 f _005_ [4:0] $end
$var wire 2 g _004_ [1:0] $end
$var wire 2 h _003_ [1:0] $end
$var wire 2 i _002_ [1:0] $end
$var wire 2 j _001_ [1:0] $end
$var wire 2 k _000_ [1:0] $end
$upscope $end
$scope module registrador $end
$var wire 1 & ck $end
$var wire 4 l d [3:0] $end
$var wire 1 * ld $end
$var wire 4 m _0_ [3:0] $end
$var reg 4 n q [3:0] $end
$upscope $end
$upscope $end
$scope module bloco2 $end
$var wire 1 & ck $end
$var wire 1 0 enb $end
$var wire 1 * ld $end
$var wire 1 + rst_s $end
$var wire 7 o sgm [6:0] $end
$var wire 4 p qx [3:0] $end
$var wire 4 q qs [3:0] $end
$var wire 1 / cnt_max $end
$scope module contador $end
$var wire 1 r _00_ $end
$var wire 1 s _09_ $end
$var wire 1 t _10_ $end
$var wire 1 & ck $end
$var wire 1 0 enb $end
$var wire 1 + rst_s $end
$var wire 32 u _11_ [31:0] $end
$var wire 4 v _08_ [3:0] $end
$var wire 4 w _07_ [3:0] $end
$var wire 2 x _06_ [1:0] $end
$var wire 2 y _05_ [1:0] $end
$var wire 32 z _04_ [31:0] $end
$var wire 4 { _03_ [3:0] $end
$var wire 4 | _02_ [3:0] $end
$var wire 4 } _01_ [3:0] $end
$var reg 1 / cnt_max $end
$var reg 4 ~ q [3:0] $end
$upscope $end
$scope module conversor $end
$var wire 1 !" _007_ $end
$var wire 1 "" _010_ $end
$var wire 1 #" _013_ $end
$var wire 1 $" _016_ $end
$var wire 1 %" _017_ $end
$var wire 1 &" _020_ $end
$var wire 1 '" _021_ $end
$var wire 1 (" _022_ $end
$var wire 1 )" _023_ $end
$var wire 1 *" _028_ $end
$var wire 1 +" _029_ $end
$var wire 1 ," _030_ $end
$var wire 1 -" _031_ $end
$var wire 1 ." _032_ $end
$var wire 1 /" _033_ $end
$var wire 1 0" _034_ $end
$var wire 1 1" _035_ $end
$var wire 1 2" _036_ $end
$var wire 1 3" _039_ $end
$var wire 7 4" sgm [6:0] $end
$var wire 4 5" bcd [3:0] $end
$var wire 7 6" _038_ [6:0] $end
$var wire 70 7" _037_ [69:0] $end
$var wire 4 8" _027_ [3:0] $end
$var wire 4 9" _026_ [3:0] $end
$var wire 4 :" _025_ [3:0] $end
$var wire 4 ;" _024_ [3:0] $end
$var wire 2 <" _019_ [1:0] $end
$var wire 5 =" _018_ [4:0] $end
$var wire 2 >" _015_ [1:0] $end
$var wire 5 ?" _014_ [4:0] $end
$var wire 2 @" _012_ [1:0] $end
$var wire 5 A" _011_ [4:0] $end
$var wire 2 B" _009_ [1:0] $end
$var wire 5 C" _008_ [4:0] $end
$var wire 2 D" _006_ [1:0] $end
$var wire 5 E" _005_ [4:0] $end
$var wire 2 F" _004_ [1:0] $end
$var wire 2 G" _003_ [1:0] $end
$var wire 2 H" _002_ [1:0] $end
$var wire 2 I" _001_ [1:0] $end
$var wire 2 J" _000_ [1:0] $end
$upscope $end
$scope module registrador $end
$var wire 1 & ck $end
$var wire 4 K" d [3:0] $end
$var wire 1 * ld $end
$var wire 4 L" _0_ [3:0] $end
$var reg 4 M" q [3:0] $end
$upscope $end
$upscope $end
$scope module bloco3 $end
$var wire 1 & ck $end
$var wire 1 ( enb $end
$var wire 1 * ld $end
$var wire 1 + rst_s $end
$var wire 7 N" sgm [6:0] $end
$var wire 4 O" qx [3:0] $end
$var wire 4 P" qs [3:0] $end
$var wire 1 1 cnt_max $end
$scope module contador $end
$var wire 1 Q" _00_ $end
$var wire 1 R" _09_ $end
$var wire 1 S" _10_ $end
$var wire 1 & ck $end
$var wire 1 ( enb $end
$var wire 1 + rst_s $end
$var wire 32 T" _11_ [31:0] $end
$var wire 4 U" _08_ [3:0] $end
$var wire 4 V" _07_ [3:0] $end
$var wire 2 W" _06_ [1:0] $end
$var wire 2 X" _05_ [1:0] $end
$var wire 32 Y" _04_ [31:0] $end
$var wire 4 Z" _03_ [3:0] $end
$var wire 4 [" _02_ [3:0] $end
$var wire 4 \" _01_ [3:0] $end
$var reg 1 1 cnt_max $end
$var reg 4 ]" q [3:0] $end
$upscope $end
$scope module conversor $end
$var wire 1 ^" _007_ $end
$var wire 1 _" _010_ $end
$var wire 1 `" _013_ $end
$var wire 1 a" _016_ $end
$var wire 1 b" _017_ $end
$var wire 1 c" _020_ $end
$var wire 1 d" _021_ $end
$var wire 1 e" _022_ $end
$var wire 1 f" _023_ $end
$var wire 1 g" _028_ $end
$var wire 1 h" _029_ $end
$var wire 1 i" _030_ $end
$var wire 1 j" _031_ $end
$var wire 1 k" _032_ $end
$var wire 1 l" _033_ $end
$var wire 1 m" _034_ $end
$var wire 1 n" _035_ $end
$var wire 1 o" _036_ $end
$var wire 1 p" _039_ $end
$var wire 7 q" sgm [6:0] $end
$var wire 4 r" bcd [3:0] $end
$var wire 7 s" _038_ [6:0] $end
$var wire 70 t" _037_ [69:0] $end
$var wire 4 u" _027_ [3:0] $end
$var wire 4 v" _026_ [3:0] $end
$var wire 4 w" _025_ [3:0] $end
$var wire 4 x" _024_ [3:0] $end
$var wire 2 y" _019_ [1:0] $end
$var wire 5 z" _018_ [4:0] $end
$var wire 2 {" _015_ [1:0] $end
$var wire 5 |" _014_ [4:0] $end
$var wire 2 }" _012_ [1:0] $end
$var wire 5 ~" _011_ [4:0] $end
$var wire 2 !# _009_ [1:0] $end
$var wire 5 "# _008_ [4:0] $end
$var wire 2 ## _006_ [1:0] $end
$var wire 5 $# _005_ [4:0] $end
$var wire 2 %# _004_ [1:0] $end
$var wire 2 &# _003_ [1:0] $end
$var wire 2 '# _002_ [1:0] $end
$var wire 2 (# _001_ [1:0] $end
$var wire 2 )# _000_ [1:0] $end
$upscope $end
$scope module registrador $end
$var wire 1 & ck $end
$var wire 4 *# d [3:0] $end
$var wire 1 * ld $end
$var wire 4 +# _0_ [3:0] $end
$var reg 4 ,# q [3:0] $end
$upscope $end
$upscope $end
$upscope $end
$upscope $end
$enddefinitions $end
#0
$dumpvars
b0 ,#
b0 +#
b0 *#
b1 )#
b1 (#
b11 '#
b10 &#
b10 %#
b0 $#
b0 ##
b10000 "#
b0 !#
b10000 ~"
b0 }"
b10000 |"
b0 {"
b10000 z"
b0 y"
b10 x"
b11 w"
b101 v"
b1000 u"
b1111110000000000000000000000000000000000000000000000000000000000000000 t"
b1111110 s"
b0 r"
b1111110 q"
1p"
1o"
1n"
1m"
1l"
1k"
1j"
1i"
1h"
1g"
0f"
0e"
0d"
0c"
0b"
0a"
0`"
0_"
0^"
b0 ]"
b0 \"
b0 ["
b1 Z"
b0z0001 Y"
b11 X"
b11 W"
b1001 V"
b1001 U"
b0z000 T"
1S"
1R"
0Q"
b0 P"
b0 O"
b1111110 N"
b0 M"
b0 L"
b0 K"
b1 J"
b1 I"
b11 H"
b10 G"
b10 F"
b0 E"
b0 D"
b10000 C"
b0 B"
b10000 A"
b0 @"
b10000 ?"
b0 >"
b10000 ="
b0 <"
b10 ;"
b11 :"
b101 9"
b1000 8"
b1111110000000000000000000000000000000000000000000000000000000000000000 7"
b1111110 6"
b0 5"
b1111110 4"
13"
12"
11"
10"
1/"
1."
1-"
1,"
1+"
1*"
0)"
0("
0'"
0&"
0%"
0$"
0#"
0""
0!"
b0 ~
b0 }
b0 |
b1 {
b0z0001 z
b11 y
b11 x
b1001 w
b1001 v
b0z000 u
1t
1s
0r
b0 q
b0 p
b1111110 o
b0 n
b0 m
b0 l
b1 k
b1 j
b11 i
b10 h
b10 g
b0 f
b0 e
b10000 d
b0 c
b10000 b
b0 a
b10000 `
b0 _
b10000 ^
b0 ]
b10 \
b11 [
b101 Z
b1000 Y
b1111110000000000000000000000000000000000000000000000000000000000000000 X
b1111110 W
b0 V
b1111110 U
1T
1S
1R
1Q
1P
1O
1N
1M
1L
1K
0J
0I
0H
0G
0F
0E
0D
0C
0B
b0 A
b1 @
b1 ?
b1 >
b0z0001 =
b11 <
b10 ;
b1001 :
b1000 9
b0z000 8
17
16
05
b0 4
b0 3
b1111110 2
01
00
0/
b1111110 .
b1111110 -
b1111110 ,
0+
1*
1)
0(
1'
1&
0%
0$
b1111110 #
b1111110 "
b1111110 !
$end
#1
b11 ;
b1011 9
b10 @
b10 ?
b10 >
b10 <
b1000 :
b0z0010 =
b0z001 8
b1 m
b1 3
b1 A
b1 l
0&
#2
1&
#3
b10000 `
1T
b110000 #
b110000 .
b110000 2
b110000 U
b1010 9
b0 ^
b11000000000000000000000000000000000000000000000000000000000000 X
b10000 b
b110000 W
0S
b11 @
b0 d
b11 ?
b100 Z
b10 i
1J
b11 >
b11 g
b11 \
b10 [
b11 h
b11 <
b0z0011 =
b0z000 8
b1001 Y
b1011 :
b10 m
b1 4
b1 V
b1 n
b10 3
b10 A
b10 l
0&
#4
1&
#5
1F
1C
1D
1I
1B
b1000 d
b10 c
b10 a
b10 e
b1101101 #
b1101101 .
b1101101 2
b1101101 U
b1000 f
1G
b0 `
1T
b1101101 W
b11 ;
b10 ]
b1101 9
b1000 ^
b1000 b
b100 @
0K
b100 ?
b11011010000000000000000000000000000000000000000000000000 X
b100 >
b0 k
1S
b1010 :
b0z0100 =
b0z011 8
b1 [
b111 Z
b0 \
b11 i
b11 m
b1010 Y
b11 3
b11 A
b11 l
b10 4
b10 V
b10 n
0&
0'
#6
1&
#7
1T
1E
1F
1C
1D
1I
1B
b1111001 #
b1111001 .
b1111001 2
b1111001 U
b10 ;
b10 _
b1000 d
b1000 b
b10 c
b10 a
b10 e
b1111001 W
b1000 `
b1111001000000000000000000000000000000000000000000 X
b1000 f
0G
b1100 9
0L
b0 ]
b101 @
b0 ^
b101 ?
b110 Z
b0 j
1K
b101 >
b1 \
b0 [
b1 k
b11 <
b0z0101 =
b0z000 8
b1011 Y
b1101 :
b100 m
b11 4
b11 V
b11 n
b100 3
b100 A
b100 l
0&
#8
1&
#9
1T
b110011 #
b110011 .
b110011 2
b110011 U
1H
0F
0C
1I
1B
b110011 W
b0 d
b0 c
b10 e
1E
b11 ;
b1111 9
b100 b
b11001100000000000000000000000000000000000 X
b100 f
b10 _
b110 @
0P
b110 ?
b100 `
b110 >
b10 <
1L
b1100 :
b10 g
b11 j
b0z0110 =
b0z001 8
b0 h
b1 i
b110 \
b1 Z
b11 k
b101 m
b1100 Y
b111 [
b101 3
b101 A
b101 l
b100 4
b100 V
b100 n
0&
#10
1&
#11
1T
b1011011 #
b1011011 .
b1011011 2
b1011011 U
1F
1C
1E
1I
1B
b1011011 W
b10 c
0D
b100 `
1H
b10 _
b10 e
b1110 9
b100 d
b10110110000000000000000000000000000 X
b0 a
b100 f
0M
b111 @
b0 b
b111 ?
b0 Z
b0 i
1P
b111 >
b11 g
b111 \
b110 [
b1 h
b11 <
b0z0111 =
b0z000 8
b1101 Y
b1111 :
b110 m
b101 4
b101 V
b101 n
b110 3
b110 A
b110 l
0&
#12
1&
#13
b1011111 #
b1011111 .
b1011111 2
b1011111 U
1T
1G
1E
1I
b1011111 W
b10 ^
b1 ]
1F
1C
b10 `
1H
b1 _
b1 e
b1 ;
b1 9
b1011111000000000000000000000 X
b1 c
b10 f
b1000 @
0N
b1000 ?
b10 d
b1000 >
b10 k
1M
b1110 :
b0z1000 =
b0z111 8
b101 [
b11 Z
b100 \
b1 i
b111 m
b1110 Y
b111 3
b111 A
b111 l
b110 4
b110 V
b110 n
0&
#14
1&
#15
15
07
1T
1D
1I
1E
1C
b1110000 #
b1110000 .
b1110000 2
b1110000 U
b1 _
b1 a
0G
0F
0H
b1110000 W
0B
b10 `
b1 c
b0 ;
b10 b
b0 ^
b111000000000000000000 X
b0 ]
b0 e
b10 d
b0 9
0O
b1001 @
b0 f
b1001 ?
b10 Z
b10 j
1N
b1001 >
b101 \
b100 [
b11 k
b1 <
b0z1001 =
b0z000 8
b1111 Y
b1 :
b1000 m
b111 4
b111 V
b111 n
b1000 3
b1000 A
b1000 l
0&
#16
1&
#17
1F
1H
1B
b1111111 #
b1111111 .
b1111111 2
b1111111 U
1T
05
1G
b1 e
1I
1E
1C
17
b1111111 W
b1 _
b1 ]
b1 f
1D
b1 `
b1 c
b11 ;
b1001 9
b1 ^
b11111110000000 X
b1 a
b1 d
b10 x
b0 @
06
0Q
b0 ?
b1 b
b1000 v
b0 >
b0 <
b11 j
1O
b0 :
b0 g
b1 }
b0z1010 =
b0z001 8
b11 k
b10 h
b1101 Z
b1010 \
b11 i
b1 |
b1001 m
b0 Y
b1011 [
10
b1001 3
b1001 A
b1001 l
b1000 4
b1000 V
b1000 n
0&
#18
1&
#19
b10 ;
b1111011 #
b1111011 .
b1111011 2
b1111011 U
1T
1F
1H
1B
1D
1I
1E
1C
b1000 9
b1111011 W
b1 _
0G
b1 d
b1 b
b1 `
b1 e
b1 a
b1 c
b1 @
b1 ?
b1111011 X
b0 ]
b1 f
b1 >
0R
16
b10 x
b0 ^
b10 {
b10 y
b1100 Z
b10 i
1Q
b11 <
b1000 v
b1000 w
b1 g
b0z0010 z
b0z001 u
b1011 \
b1010 [
b11 h
b1001 :
b0z0001 =
b0z000 8
b1 }
b1 L"
b1 Y
b0 m
b1 |
b1 p
b1 ~
b1 K"
b1001 4
b1001 V
b1001 n
b0 3
b0 A
b0 l
00
0&
#20
1&
#21
0F
0H
0B
0D
0I
0E
0C
b0 _
b0 e
b0 a
b0 c
0G
b0 f
b1111110 #
b1111110 .
b1111110 2
b1111110 U
b10000 `
b10000 ?"
13"
b110000 "
b110000 -
b110000 o
b110000 4"
b11 ;
b1011 9
b0 ]
b1111110 W
b10000 b
b0 ="
b11000000000000000000000000000000000000000000000000000000000000 7"
b10000 A"
b110000 6"
b10 @
1R
02"
b10 ?
b10000 ^
b10000 d
b1111110000000000000000000000000000000000000000000000000000000000000000 X
b0 C"
b10 >
b10 <
b11 i
1Q
0J
1S
b100 9"
b10 H"
1)"
b1000 :
b10 g
b1 j
b11 F"
b0z0010 =
b0z001 8
b10 h
b101 Z
b10 \
b1 k
b11 ;"
b10 :"
b11 G"
b1 m
b1000 Y
b11 [
b1001 8"
b1 3
b1 A
b1 l
b0 4
b0 V
b0 n
b1 q
b1 5"
b1 M"
0&
#22
1&
#23
b10000 `
1T
b110000 #
b110000 .
b110000 2
b110000 U
b1010 9
b0 ^
b11000000000000000000000000000000000000000000000000000000000000 X
b10000 b
b110000 W
0S
b11 @
b0 d
b11 ?
b100 Z
b10 i
1J
b11 >
b11 g
b11 \
b10 [
b11 h
b11 <
b0z0011 =
b0z000 8
b1001 Y
b1011 :
b10 m
b1 4
b1 V
b1 n
b10 3
b10 A
b10 l
0&
#24
1&
#25
1F
1C
1D
1I
1B
b1000 d
b10 c
b10 a
b10 e
b1101101 #
b1101101 .
b1101101 2
b1101101 U
b1000 f
1G
b0 `
1T
b1101101 W
b11 ;
b10 ]
b1101 9
b1000 ^
b1000 b
b100 @
0K
b100 ?
b11011010000000000000000000000000000000000000000000000000 X
b100 >
b0 k
1S
b1010 :
b0z0100 =
b0z011 8
b1 [
b111 Z
b0 \
b11 i
b11 m
b1010 Y
b11 3
b11 A
b11 l
b10 4
b10 V
b10 n
0&
#26
1&
#27
1T
1E
1F
1C
1D
1I
1B
b1111001 #
b1111001 .
b1111001 2
b1111001 U
b10 ;
b10 _
b1000 d
b1000 b
b10 c
b10 a
b10 e
b1111001 W
b1000 `
b1111001000000000000000000000000000000000000000000 X
b1000 f
0G
b1100 9
0L
b0 ]
b101 @
b0 ^
b101 ?
b110 Z
b0 j
1K
b101 >
b1 \
b0 [
b1 k
b11 <
b0z0101 =
b0z000 8
b1011 Y
b1101 :
b100 m
b11 4
b11 V
b11 n
b100 3
b100 A
b100 l
0&
#28
1&
#29
1T
b110011 #
b110011 .
b110011 2
b110011 U
1H
0F
0C
1I
1B
b110011 W
b0 d
b0 c
b10 e
1E
b11 ;
b1111 9
b100 b
b11001100000000000000000000000000000000000 X
b100 f
b10 _
b110 @
0P
b110 ?
b100 `
b110 >
b10 <
1L
b1100 :
b10 g
b11 j
b0z0110 =
b0z001 8
b0 h
b1 i
b110 \
b1 Z
b11 k
b101 m
b1100 Y
b111 [
b101 3
b101 A
b101 l
b100 4
b100 V
b100 n
0&
#30
1&
#31
1T
b1011011 #
b1011011 .
b1011011 2
b1011011 U
1F
1C
1E
1I
1B
b1011011 W
b10 c
0D
b100 `
1H
b10 _
b10 e
b1110 9
b100 d
b10110110000000000000000000000000000 X
b0 a
b100 f
0M
b111 @
b0 b
b111 ?
b0 Z
b0 i
1P
b111 >
b11 g
b111 \
b110 [
b1 h
b11 <
b0z0111 =
b0z000 8
b1101 Y
b1111 :
b110 m
b101 4
b101 V
b101 n
b110 3
b110 A
b110 l
0&
#32
1&
#33
b1011111 #
b1011111 .
b1011111 2
b1011111 U
1T
1G
1E
1I
b1011111 W
b10 ^
b1 ]
1F
1C
b10 `
1H
b1 _
b1 e
b1 ;
b1 9
b1011111000000000000000000000 X
b1 c
b10 f
b1000 @
0N
b1000 ?
b10 d
b1000 >
b10 k
1M
b1110 :
b0z1000 =
b0z111 8
b101 [
b11 Z
b100 \
b1 i
b111 m
b1110 Y
b111 3
b111 A
b111 l
b110 4
b110 V
b110 n
0&
#34
1&
#35
15
07
1T
1D
1I
1E
1C
b1110000 #
b1110000 .
b1110000 2
b1110000 U
b1 _
b1 a
0G
0F
0H
b1110000 W
0B
b10 `
b1 c
b0 ;
b10 b
b0 ^
b111000000000000000000 X
b0 ]
b0 e
b10 d
b0 9
0O
b1001 @
b0 f
b1001 ?
b10 Z
b10 j
1N
b1001 >
b101 \
b100 [
b11 k
b1 <
b0z1001 =
b0z000 8
b1111 Y
b1 :
b1000 m
b111 4
b111 V
b111 n
b1000 3
b1000 A
b1000 l
0&
#36
1&
#37
1F
1H
1B
b1111111 #
b1111111 .
b1111111 2
b1111111 U
1T
05
1G
b1 e
1I
1E
1C
17
b1111111 W
b1 _
b1 ]
b1 f
1D
b1 `
b1 c
b11 ;
b1001 9
b1 ^
b11111110000000 X
b1 a
b1 d
b0 @
06
0Q
b0 ?
b1 b
b11 x
b0 >
b0 <
b11 j
1O
b1011 v
b0 :
b0 g
b10 }
b0z1010 =
b0z001 8
b11 k
b10 h
b1101 Z
b1010 \
b11 i
b10 |
b1001 m
b0 Y
b1011 [
10
b1001 3
b1001 A
b1001 l
b1000 4
b1000 V
b1000 n
0&
#38
1&
#39
b10 ;
b1111011 #
b1111011 .
b1111011 2
b1111011 U
1T
1F
1H
1B
1D
1I
1E
1C
b1000 9
b1111011 W
b1 _
0G
b1 d
b1 b
b1 `
b1 e
b1 a
b1 c
b1 @
b1 ?
b1111011 X
b0 ]
b1 f
b1 >
0R
16
b0 ^
b11 {
b1100 Z
b10 i
1Q
b11 <
b1 g
b1011 v
b11 y
b0z0011 z
b0z000 u
b1011 \
b1010 [
b11 h
b1001 :
b0z0001 =
b0z000 8
b10 }
b1011 w
b10 L"
b1 Y
b0 m
b10 |
b10 p
b10 ~
b10 K"
b1001 4
b1001 V
b1001 n
b0 3
b0 A
b0 l
00
0&
#40
1&
#41
0F
0H
0B
0D
0I
0E
0C
1%"
1""
1#"
1("
1!"
b0 _
b0 e
b0 a
b0 c
b1000 C"
b10 B"
b10 @"
b10 D"
b1101101 "
b1101101 -
b1101101 o
b1101101 4"
0G
b0 f
b1111110 #
b1111110 .
b1111110 2
b1111110 U
b10000 `
b1000 E"
1&"
b0 ?"
13"
b1101101 6"
b11 ;
b10 <"
b1011 9
b0 ]
b1111110 W
b10000 b
b1000 ="
b1000 A"
b10 @
1R
0*"
b10 ?
b10000 ^
b10000 d
b1111110000000000000000000000000000000000000000000000000000000000000000 X
b11011010000000000000000000000000000000000000000000000000 7"
b10 >
b10 <
b11 i
1Q
0J
1S
b0 J"
12"
b1000 :
b10 g
b1 j
b0z0010 =
b0z001 8
b10 h
b101 Z
b10 \
b1 k
b1 :"
b111 9"
b0 ;"
b11 H"
b1 m
b1000 Y
b11 [
b1010 8"
b1 3
b1 A
b1 l
b0 4
b0 V
b0 n
b10 q
b10 5"
b10 M"
0&
#42
1&
#43
b10000 `
1T
b110000 #
b110000 .
b110000 2
b110000 U
b1010 9
b0 ^
b11000000000000000000000000000000000000000000000000000000000000 X
b10000 b
b110000 W
0S
b11 @
b0 d
b11 ?
b100 Z
b10 i
1J
b11 >
b11 g
b11 \
b10 [
b11 h
b11 <
b0z0011 =
b0z000 8
b1001 Y
b1011 :
b10 m
b1 4
b1 V
b1 n
b10 3
b10 A
b10 l
0&
#44
1&
#45
1F
1C
1D
1I
1B
b1000 d
b10 c
b10 a
b10 e
b1101101 #
b1101101 .
b1101101 2
b1101101 U
b1000 f
1G
b0 `
1T
b1101101 W
b11 ;
b10 ]
b1101 9
b1000 ^
b1000 b
b100 @
0K
b100 ?
b11011010000000000000000000000000000000000000000000000000 X
b100 >
b0 k
1S
b1010 :
b0z0100 =
b0z011 8
b1 [
b111 Z
b0 \
b11 i
b11 m
b1010 Y
b11 3
b11 A
b11 l
b10 4
b10 V
b10 n
0&
#46
1&
#47
1T
1E
1F
1C
1D
1I
1B
b1111001 #
b1111001 .
b1111001 2
b1111001 U
b10 ;
b10 _
b1000 d
b1000 b
b10 c
b10 a
b10 e
b1111001 W
b1000 `
b1111001000000000000000000000000000000000000000000 X
b1000 f
0G
b1100 9
0L
b0 ]
b101 @
b0 ^
b101 ?
b110 Z
b0 j
1K
b101 >
b1 \
b0 [
b1 k
b11 <
b0z0101 =
b0z000 8
b1011 Y
b1101 :
b100 m
b11 4
b11 V
b11 n
b100 3
b100 A
b100 l
0&
#48
1&
#49
1T
b110011 #
b110011 .
b110011 2
b110011 U
1H
0F
0C
1I
1B
b110011 W
b0 d
b0 c
b10 e
1E
b11 ;
b1111 9
b100 b
b11001100000000000000000000000000000000000 X
b100 f
b10 _
b110 @
0P
b110 ?
b100 `
b110 >
b10 <
1L
b1100 :
b10 g
b11 j
b0z0110 =
b0z001 8
b0 h
b1 i
b110 \
b1 Z
b11 k
b101 m
b1100 Y
b111 [
b101 3
b101 A
b101 l
b100 4
b100 V
b100 n
0&
#50
1&
#51
1T
b1011011 #
b1011011 .
b1011011 2
b1011011 U
1F
1C
1E
1I
1B
b1011011 W
b10 c
0D
b100 `
1H
b10 _
b10 e
b1110 9
b100 d
b10110110000000000000000000000000000 X
b0 a
b100 f
0M
b111 @
b0 b
b111 ?
b0 Z
b0 i
1P
b111 >
b11 g
b111 \
b110 [
b1 h
b11 <
b0z0111 =
b0z000 8
b1101 Y
b1111 :
b110 m
b101 4
b101 V
b101 n
b110 3
b110 A
b110 l
0&
#52
1&
#53
b1011111 #
b1011111 .
b1011111 2
b1011111 U
1T
1G
1E
1I
b1011111 W
b10 ^
b1 ]
1F
1C
b10 `
1H
b1 _
b1 e
b1 ;
b1 9
b1011111000000000000000000000 X
b1 c
b10 f
b1000 @
0N
b1000 ?
b10 d
b1000 >
b10 k
1M
b1110 :
b0z1000 =
b0z111 8
b101 [
b11 Z
b100 \
b1 i
b111 m
b1110 Y
b111 3
b111 A
b111 l
b110 4
b110 V
b110 n
0&
#54
1&
#55
15
07
1T
1D
1I
1E
1C
b1110000 #
b1110000 .
b1110000 2
b1110000 U
b1 _
b1 a
0G
0F
0H
b1110000 W
0B
b10 `
b1 c
b0 ;
b10 b
b0 ^
b111000000000000000000 X
b0 ]
b0 e
b10 d
b0 9
0O
b1001 @
b0 f
b1001 ?
b10 Z
b10 j
1N
b1001 >
b101 \
b100 [
b11 k
b1 <
b0z1001 =
b0z000 8
b1111 Y
b1 :
b1000 m
b111 4
b111 V
b111 n
b1000 3
b1000 A
b1000 l
0&
#56
1&
#57
1F
1H
1B
b1111111 #
b1111111 .
b1111111 2
b1111111 U
1T
05
1G
b1 e
1I
1E
1C
17
b1111111 W
b1 _
b1 ]
b1 f
1D
b1 `
b1 c
b11 ;
b1001 9
b1 ^
b11111110000000 X
b1 a
b1 d
b0 @
06
0Q
b0 ?
b1 b
b1010 v
b0 >
b0 <
b11 j
1O
b0 :
b0 g
b11 }
b0z1010 =
b0z001 8
b11 k
b10 h
b1101 Z
b1010 \
b11 i
b11 |
b1001 m
b0 Y
b1011 [
10
b1001 3
b1001 A
b1001 l
b1000 4
b1000 V
b1000 n
0&
#58
1&
#59
b10 ;
b1111011 #
b1111011 .
b1111011 2
b1111011 U
1T
1F
1H
1B
1D
1I
1E
1C
b1000 9
b1111011 W
b1 _
0G
b1 d
b1 b
b1 `
b1 e
b1 a
b1 c
b1 @
b1 ?
b1111011 X
b0 ]
b1 f
b1 >
0R
16
b0 ^
b100 {
b1100 Z
b10 i
1Q
b11 <
b1010 v
b1010 w
b1 g
b0z0100 z
b0z011 u
b1011 \
b1010 [
b11 h
b1001 :
b0z0001 =
b0z000 8
b11 }
b11 L"
b1 Y
b0 m
b11 |
b11 p
b11 ~
b11 K"
b1001 4
b1001 V
b1001 n
b0 3
b0 A
b0 l
00
0&
#60
1&
#61
0F
0H
0B
0D
0I
0E
0C
b0 _
13"
b0 e
b0 a
b0 c
1$"
1%"
1""
1#"
1("
1!"
b1111001 "
b1111001 -
b1111001 o
b1111001 4"
0G
b0 f
b1111110 #
b1111110 .
b1111110 2
b1111110 U
b10000 `
b10 >"
b1000 C"
b1000 A"
b10 B"
b10 @"
b10 D"
b11 ;
b1111001 6"
b1011 9
b0 ]
b1111110 W
b10000 b
b1000 ?"
b1111001000000000000000000000000000000000000000000 7"
b1000 E"
0&"
b10 @
1R
0+"
b0 <"
b10 ?
b10000 ^
b10000 d
b1111110000000000000000000000000000000000000000000000000000000000000000 X
b0 ="
b10 >
b10 <
b11 i
1Q
0J
1S
b110 9"
b0 I"
1*"
b1000 :
b10 g
b1 j
b0z0010 =
b0z001 8
b10 h
b101 Z
b10 \
b1 k
b1 ;"
b0 :"
b1 J"
b1 m
b1000 Y
b11 [
b1011 8"
b1 3
b1 A
b1 l
b0 4
b0 V
b0 n
b11 q
b11 5"
b11 M"
0&
#62
1&
#63
b10000 `
1T
b110000 #
b110000 .
b110000 2
b110000 U
b1010 9
b0 ^
b11000000000000000000000000000000000000000000000000000000000000 X
b10000 b
b110000 W
0S
b11 @
b0 d
b11 ?
b100 Z
b10 i
1J
b11 >
b11 g
b11 \
b10 [
b11 h
b11 <
b0z0011 =
b0z000 8
b1001 Y
b1011 :
b10 m
b1 4
b1 V
b1 n
b10 3
b10 A
b10 l
0&
#64
1&
