simulacoes/vcd/bcd.vcd
$date
	Mon Jul 17 17:40:32 2023
$end
$version
	Icarus Verilog
$end
$timescale
	1s
$end
$scope module bcd_tb $end
$var wire 7 ! sgm2 [6:0] $end
$var wire 7 " sgm1 [6:0] $end
$var wire 7 # sgm0 [6:0] $end
$var wire 1 $ enb_3 $end
$var reg 1 % ck $end
$scope module counter $end
$var wire 1 % ck $end
$var wire 1 & enb_0 $end
$var wire 1 ' enb_2 $end
$var wire 1 $ enb_3 $end
$var wire 1 ( ld $end
$var wire 1 ) rst_s $end
$var wire 7 * sgm2 [6:0] $end
$var wire 7 + sgm1 [6:0] $end
$var wire 7 , sgm0 [6:0] $end
$var wire 1 - enb_1 $end
$var wire 1 . aux_2 $end
$var wire 1 / aux_1 $end
$scope module bloco1 $end
$var wire 1 % ck $end
$var wire 1 & enb $end
$var wire 1 ( ld $end
$var wire 1 ) rst_s $end
$var wire 7 0 sgm [6:0] $end
$var wire 4 1 qx [3:0] $end
$var wire 4 2 qs [3:0] $end
$var wire 1 - cnt_max $end
$scope module contador $end
$var wire 1 3 _00_ $end
$var wire 1 4 _09_ $end
$var wire 1 5 _10_ $end
$var wire 1 % ck $end
$var wire 1 & enb $end
$var wire 1 ) rst_s $end
$var wire 32 6 _11_ [31:0] $end
$var wire 4 7 _08_ [3:0] $end
$var wire 4 8 _07_ [3:0] $end
$var wire 2 9 _06_ [1:0] $end
$var wire 2 : _05_ [1:0] $end
$var wire 32 ; _04_ [31:0] $end
$var wire 4 < _03_ [3:0] $end
$var wire 4 = _02_ [3:0] $end
$var wire 4 > _01_ [3:0] $end
$var reg 1 - cnt_max $end
$var reg 4 ? q [3:0] $end
$upscope $end
$scope module conversor $end
$var wire 1 @ _007_ $end
$var wire 1 A _010_ $end
$var wire 1 B _013_ $end
$var wire 1 C _016_ $end
$var wire 1 D _017_ $end
$var wire 1 E _020_ $end
$var wire 1 F _021_ $end
$var wire 1 G _022_ $end
$var wire 1 H _023_ $end
$var wire 1 I _028_ $end
$var wire 1 J _029_ $end
$var wire 1 K _030_ $end
$var wire 1 L _031_ $end
$var wire 1 M _032_ $end
$var wire 1 N _033_ $end
$var wire 1 O _034_ $end
$var wire 1 P _035_ $end
$var wire 1 Q _036_ $end
$var wire 1 R _039_ $end
$var wire 7 S sgm [6:0] $end
$var wire 4 T bcd [3:0] $end
$var wire 7 U _038_ [6:0] $end
$var wire 70 V _037_ [69:0] $end
$var wire 4 W _027_ [3:0] $end
$var wire 4 X _026_ [3:0] $end
$var wire 4 Y _025_ [3:0] $end
$var wire 4 Z _024_ [3:0] $end
$var wire 2 [ _019_ [1:0] $end
$var wire 5 \ _018_ [4:0] $end
$var wire 2 ] _015_ [1:0] $end
$var wire 5 ^ _014_ [4:0] $end
$var wire 2 _ _012_ [1:0] $end
$var wire 5 ` _011_ [4:0] $end
$var wire 2 a _009_ [1:0] $end
$var wire 5 b _008_ [4:0] $end
$var wire 2 c _006_ [1:0] $end
$var wire 5 d _005_ [4:0] $end
$var wire 2 e _004_ [1:0] $end
$var wire 2 f _003_ [1:0] $end
$var wire 2 g _002_ [1:0] $end
$var wire 2 h _001_ [1:0] $end
$var wire 2 i _000_ [1:0] $end
$upscope $end
$scope module registrador $end
$var wire 1 % ck $end
$var wire 4 j d [3:0] $end
$var wire 1 ( ld $end
$var wire 4 k _0_ [3:0] $end
$var reg 4 l q [3:0] $end
$upscope $end
$upscope $end
$scope module bloco2 $end
$var wire 1 % ck $end
$var wire 1 - enb $end
$var wire 1 ( ld $end
$var wire 1 ) rst_s $end
$var wire 7 m sgm [6:0] $end
$var wire 4 n qx [3:0] $end
$var wire 4 o qs [3:0] $end
$var wire 1 / cnt_max $end
$scope module contador $end
$var wire 1 p _00_ $end
$var wire 1 q _09_ $end
$var wire 1 r _10_ $end
$var wire 1 % ck $end
$var wire 1 - enb $end
$var wire 1 ) rst_s $end
$var wire 32 s _11_ [31:0] $end
$var wire 4 t _08_ [3:0] $end
$var wire 4 u _07_ [3:0] $end
$var wire 2 v _06_ [1:0] $end
$var wire 2 w _05_ [1:0] $end
$var wire 32 x _04_ [31:0] $end
$var wire 4 y _03_ [3:0] $end
$var wire 4 z _02_ [3:0] $end
$var wire 4 { _01_ [3:0] $end
$var reg 1 / cnt_max $end
$var reg 4 | q [3:0] $end
$upscope $end
$scope module conversor $end
$var wire 1 } _007_ $end
$var wire 1 ~ _010_ $end
$var wire 1 !" _013_ $end
$var wire 1 "" _016_ $end
$var wire 1 #" _017_ $end
$var wire 1 $" _020_ $end
$var wire 1 %" _021_ $end
$var wire 1 &" _022_ $end
$var wire 1 '" _023_ $end
$var wire 1 (" _028_ $end
$var wire 1 )" _029_ $end
$var wire 1 *" _030_ $end
$var wire 1 +" _031_ $end
$var wire 1 ," _032_ $end
$var wire 1 -" _033_ $end
$var wire 1 ." _034_ $end
$var wire 1 /" _035_ $end
$var wire 1 0" _036_ $end
$var wire 1 1" _039_ $end
$var wire 7 2" sgm [6:0] $end
$var wire 4 3" bcd [3:0] $end
$var wire 7 4" _038_ [6:0] $end
$var wire 70 5" _037_ [69:0] $end
$var wire 4 6" _027_ [3:0] $end
$var wire 4 7" _026_ [3:0] $end
$var wire 4 8" _025_ [3:0] $end
$var wire 4 9" _024_ [3:0] $end
$var wire 2 :" _019_ [1:0] $end
$var wire 5 ;" _018_ [4:0] $end
$var wire 2 <" _015_ [1:0] $end
$var wire 5 =" _014_ [4:0] $end
$var wire 2 >" _012_ [1:0] $end
$var wire 5 ?" _011_ [4:0] $end
$var wire 2 @" _009_ [1:0] $end
$var wire 5 A" _008_ [4:0] $end
$var wire 2 B" _006_ [1:0] $end
$var wire 5 C" _005_ [4:0] $end
$var wire 2 D" _004_ [1:0] $end
$var wire 2 E" _003_ [1:0] $end
$var wire 2 F" _002_ [1:0] $end
$var wire 2 G" _001_ [1:0] $end
$var wire 2 H" _000_ [1:0] $end
$upscope $end
$scope module registrador $end
$var wire 1 % ck $end
$var wire 4 I" d [3:0] $end
$var wire 1 ( ld $end
$var wire 4 J" _0_ [3:0] $end
$var reg 4 K" q [3:0] $end
$upscope $end
$upscope $end
$scope module bloco3 $end
$var wire 1 % ck $end
$var wire 1 ' enb $end
$var wire 1 ( ld $end
$var wire 1 ) rst_s $end
$var wire 7 L" sgm [6:0] $end
$var wire 4 M" qx [3:0] $end
$var wire 4 N" qs [3:0] $end
$var wire 1 . cnt_max $end
$scope module contador $end
$var wire 1 O" _00_ $end
$var wire 1 P" _09_ $end
$var wire 1 Q" _10_ $end
$var wire 1 % ck $end
$var wire 1 ' enb $end
$var wire 1 ) rst_s $end
$var wire 32 R" _11_ [31:0] $end
$var wire 4 S" _08_ [3:0] $end
$var wire 4 T" _07_ [3:0] $end
$var wire 2 U" _06_ [1:0] $end
$var wire 2 V" _05_ [1:0] $end
$var wire 32 W" _04_ [31:0] $end
$var wire 4 X" _03_ [3:0] $end
$var wire 4 Y" _02_ [3:0] $end
$var wire 4 Z" _01_ [3:0] $end
$var reg 1 . cnt_max $end
$var reg 4 [" q [3:0] $end
$upscope $end
$scope module conversor $end
$var wire 1 \" _007_ $end
$var wire 1 ]" _010_ $end
$var wire 1 ^" _013_ $end
$var wire 1 _" _016_ $end
$var wire 1 `" _017_ $end
$var wire 1 a" _020_ $end
$var wire 1 b" _021_ $end
$var wire 1 c" _022_ $end
$var wire 1 d" _023_ $end
$var wire 1 e" _028_ $end
$var wire 1 f" _029_ $end
$var wire 1 g" _030_ $end
$var wire 1 h" _031_ $end
$var wire 1 i" _032_ $end
$var wire 1 j" _033_ $end
$var wire 1 k" _034_ $end
$var wire 1 l" _035_ $end
$var wire 1 m" _036_ $end
$var wire 1 n" _039_ $end
$var wire 7 o" sgm [6:0] $end
$var wire 4 p" bcd [3:0] $end
$var wire 7 q" _038_ [6:0] $end
$var wire 70 r" _037_ [69:0] $end
$var wire 4 s" _027_ [3:0] $end
$var wire 4 t" _026_ [3:0] $end
$var wire 4 u" _025_ [3:0] $end
$var wire 4 v" _024_ [3:0] $end
$var wire 2 w" _019_ [1:0] $end
$var wire 5 x" _018_ [4:0] $end
$var wire 2 y" _015_ [1:0] $end
$var wire 5 z" _014_ [4:0] $end
$var wire 2 {" _012_ [1:0] $end
$var wire 5 |" _011_ [4:0] $end
$var wire 2 }" _009_ [1:0] $end
$var wire 5 ~" _008_ [4:0] $end
$var wire 2 !# _006_ [1:0] $end
$var wire 5 "# _005_ [4:0] $end
$var wire 2 ## _004_ [1:0] $end
$var wire 2 $# _003_ [1:0] $end
$var wire 2 %# _002_ [1:0] $end
$var wire 2 &# _001_ [1:0] $end
$var wire 2 '# _000_ [1:0] $end
$upscope $end
$scope module registrador $end
$var wire 1 % ck $end
$var wire 4 (# d [3:0] $end
$var wire 1 ( ld $end
$var wire 4 )# _0_ [3:0] $end
$var reg 4 *# q [3:0] $end
$upscope $end
$upscope $end
$upscope $end
$upscope $end
$enddefinitions $end
#0
$dumpvars
b0 *#
b0 )#
b0 (#
b1 '#
b1 &#
b11 %#
b10 $#
b10 ##
b0 "#
b0 !#
b10000 ~"
b0 }"
b10000 |"
b0 {"
b10000 z"
b0 y"
b10000 x"
b0 w"
b10 v"
b11 u"
b101 t"
b1000 s"
b1111110000000000000000000000000000000000000000000000000000000000000000 r"
b1111110 q"
b0 p"
b1111110 o"
1n"
1m"
1l"
1k"
1j"
1i"
1h"
1g"
1f"
1e"
0d"
0c"
0b"
0a"
0`"
0_"
0^"
0]"
0\"
b0 ["
b0 Z"
b0 Y"
b1 X"
b0z0001 W"
b11 V"
b11 U"
b1001 T"
b1001 S"
b0z000 R"
1Q"
1P"
0O"
b0 N"
b0 M"
b1111110 L"
b0 K"
b0 J"
b0 I"
b1 H"
b1 G"
b11 F"
b10 E"
b10 D"
b0 C"
b0 B"
b10000 A"
b0 @"
b10000 ?"
b0 >"
b10000 ="
b0 <"
b10000 ;"
b0 :"
b10 9"
b11 8"
b101 7"
b1000 6"
b1111110000000000000000000000000000000000000000000000000000000000000000 5"
b1111110 4"
b0 3"
b1111110 2"
11"
10"
1/"
1."
1-"
1,"
1+"
1*"
1)"
1("
0'"
0&"
0%"
0$"
0#"
0""
0!"
0~
0}
b0 |
b0 {
b0 z
b1 y
b0z0001 x
b11 w
b11 v
b1001 u
b1001 t
b0z000 s
1r
1q
0p
b0 o
b0 n
b1111110 m
b0 l
b0 k
b0 j
b1 i
b1 h
b11 g
b10 f
b10 e
b0 d
b0 c
b10000 b
b0 a
b10000 `
b0 _
b10000 ^
b0 ]
b10000 \
b0 [
b10 Z
b11 Y
b101 X
b1000 W
b1111110000000000000000000000000000000000000000000000000000000000000000 V
b1111110 U
b0 T
b1111110 S
1R
1Q
1P
1O
1N
1M
1L
1K
1J
1I
0H
0G
0F
0E
0D
0C
0B
0A
0@
b0 ?
b1 >
b1 =
b1 <
b0z0001 ;
b11 :
b10 9
b1001 8
b1000 7
b0z000 6
15
14
03
b0 2
b0 1
b1111110 0
0/
0.
0-
b1111110 ,
b1111110 +
b1111110 *
0)
1(
0'
1&
0%
0$
b1111110 #
b1111110 "
b1111110 !
$end
#1
b11 9
b1011 7
b10 >
b10 =
b10 <
b10 :
b1000 8
b0z0010 ;
b0z001 6
b1 k
b1 1
b1 ?
b1 j
1%
#2
0%
#3
b10000 ^
1R
b110000 #
b110000 ,
b110000 0
b110000 S
b1010 7
b0 \
b11000000000000000000000000000000000000000000000000000000000000 V
b10000 `
b110000 U
0Q
b11 >
b0 b
b11 =
b100 X
b10 g
1H
b11 <
b11 e
b11 Z
b10 Y
b11 f
b11 :
b0z0011 ;
b0z000 6
b1001 W
b1011 8
b10 k
b1 2
b1 T
b1 l
b10 1
b10 ?
b10 j
1%
#4
0%
#5
1D
1A
1B
1G
1@
b1000 b
b10 a
b10 _
b10 c
b1101101 #
b1101101 ,
b1101101 0
b1101101 S
b1000 d
1E
b0 ^
1R
b1101101 U
b11 9
b10 [
b1101 7
b1000 \
b1000 `
b100 >
0I
b100 =
b11011010000000000000000000000000000000000000000000000000 V
b100 <
b0 i
1Q
b1010 8
b0z0100 ;
b0z011 6
b1 Y
b111 X
b0 Z
b11 g
b11 k
b1010 W
b11 1
b11 ?
b11 j
b10 2
b10 T
b10 l
1%
#6
0%
#7
1R
1C
1D
1A
1B
1G
1@
b1111001 #
b1111001 ,
b1111001 0
b1111001 S
b10 9
b10 ]
b1000 b
b1000 `
b10 a
b10 _
b10 c
b1111001 U
b1000 ^
b1111001000000000000000000000000000000000000000000 V
b1000 d
0E
b1100 7
0J
b0 [
b101 >
b0 \
b101 =
b110 X
b0 h
1I
b101 <
b1 Z
b0 Y
b1 i
b11 :
b0z0101 ;
b0z000 6
b1011 W
b1101 8
b100 k
b11 2
b11 T
b11 l
b100 1
b100 ?
b100 j
1%
#8
0%
#9
1R
b110011 #
b110011 ,
b110011 0
b110011 S
1F
0D
0A
1G
1@
b110011 U
b0 b
b0 a
b10 c
1C
b11 9
b1111 7
b100 `
b11001100000000000000000000000000000000000 V
b100 d
b10 ]
b110 >
0N
b110 =
b100 ^
b110 <
b10 :
1J
b1100 8
b10 e
b11 h
b0z0110 ;
b0z001 6
b0 f
b1 g
b110 Z
b1 X
b11 i
b101 k
b1100 W
b111 Y
b101 1
b101 ?
b101 j
b100 2
b100 T
b100 l
1%
#10
0%
#11
1R
b1011011 #
b1011011 ,
b1011011 0
b1011011 S
1D
1A
1C
1G
1@
b1011011 U
b10 a
0B
b100 ^
1F
b10 ]
b10 c
b1110 7
b100 b
b10110110000000000000000000000000000 V
b0 _
b100 d
0K
b111 >
b0 `
b111 =
b0 X
b0 g
1N
b111 <
b11 e
b111 Z
b110 Y
b1 f
b11 :
b0z0111 ;
b0z000 6
b1101 W
b1111 8
b110 k
b101 2
b101 T
b101 l
b110 1
b110 ?
b110 j
1%
#12
0%
#13
b1011111 #
b1011111 ,
b1011111 0
b1011111 S
1R
1E
1C
1G
b1011111 U
b10 \
b1 [
1D
1A
b10 ^
1F
b1 ]
b1 c
b1 9
b1 7
b1011111000000000000000000000 V
b1 a
b10 d
b1000 >
0L
b1000 =
b10 b
b1000 <
b10 i
1K
b1110 8
b0z1000 ;
b0z111 6
b101 Y
b11 X
b100 Z
b1 g
b111 k
b1110 W
b111 1
b111 ?
b111 j
b110 2
b110 T
b110 l
1%
#14
0%
#15
13
05
1R
1B
1G
1C
1A
b1110000 #
b1110000 ,
b1110000 0
b1110000 S
b1 ]
b1 _
0E
0D
0F
b1110000 U
0@
b10 ^
b1 a
b0 9
b10 `
b0 \
b111000000000000000000 V
b0 [
b0 c
b10 b
b0 7
0M
b1001 >
b0 d
b1001 =
b10 X
b10 h
1L
b1001 <
b101 Z
b100 Y
b11 i
b1 :
b0z1001 ;
b0z000 6
b1111 W
b1 8
b1000 k
b111 2
b111 T
b111 l
b1000 1
b1000 ?
b1000 j
1%
#16
0%
#17
1D
1F
1@
b1111111 #
b1111111 ,
b1111111 0
b1111111 S
1R
03
1E
b1 c
1G
1C
1A
15
b1111111 U
b1 ]
b1 [
b1 d
1B
b1 ^
b1 a
b11 9
b1001 7
b1 \
b11111110000000 V
b1 _
b1 b
b10 v
b0 >
04
0O
b0 =
b1 `
b1000 t
b0 <
b0 :
b11 h
1M
b0 8
b0 e
b1 {
b0z1010 ;
b0z001 6
b11 i
b10 f
b1101 X
b1010 Z
b11 g
b1 z
b1001 k
b0 W
b1011 Y
1-
b1001 1
b1001 ?
b1001 j
b1000 2
b1000 T
b1000 l
1%
#18
0%
#19
b10 9
b1111011 #
b1111011 ,
b1111011 0
b1111011 S
1R
1D
1F
1@
1B
1G
1C
1A
b1000 7
b1111011 U
b1 ]
0E
b1 b
b1 `
b1 ^
b1 c
b1 _
b1 a
b1 >
b1 =
b1111011 V
b0 [
b1 d
b1 <
0P
14
b10 v
b0 \
b10 y
b10 w
b1100 X
b10 g
1O
b11 :
b1000 t
b1000 u
b1 e
b0z0010 x
b0z001 s
b1011 Z
b1010 Y
b11 f
b1001 8
b0z0001 ;
b0z000 6
b1 {
b1 J"
b1 W
b0 k
b1 z
b1 n
b1 |
b1 I"
b1001 2
b1001 T
b1001 l
b0 1
b0 ?
b0 j
0-
1%
#20
0%
#21
0D
0F
0@
0B
0G
0C
0A
b0 ]
b0 c
b0 _
b0 a
0E
b0 d
b1111110 #
b1111110 ,
b1111110 0
b1111110 S
b10000 ^
b10000 ="
11"
b110000 "
b110000 +
b110000 m
b110000 2"
b11 9
b1011 7
b0 [
b1111110 U
b10000 `
b0 ;"
b11000000000000000000000000000000000000000000000000000000000000 5"
b10000 ?"
b110000 4"
b10 >
1P
00"
b10 =
b10000 \
b10000 b
b1111110000000000000000000000000000000000000000000000000000000000000000 V
b0 A"
b10 <
b10 :
b11 g
1O
0H
1Q
b100 7"
b10 F"
1'"
b1000 8
b10 e
b1 h
b11 D"
b0z0010 ;
b0z001 6
b10 f
b101 X
b10 Z
b1 i
b11 9"
b10 8"
b11 E"
b1 k
b1000 W
b11 Y
b1001 6"
b1 1
b1 ?
b1 j
b0 2
b0 T
b0 l
b1 o
b1 3"
b1 K"
1%
#22
0%
#23
b10000 ^
1R
b110000 #
b110000 ,
b110000 0
b110000 S
b1010 7
b0 \
b11000000000000000000000000000000000000000000000000000000000000 V
b10000 `
b110000 U
0Q
b11 >
b0 b
b11 =
b100 X
b10 g
1H
b11 <
b11 e
b11 Z
b10 Y
b11 f
b11 :
b0z0011 ;
b0z000 6
b1001 W
b1011 8
b10 k
b1 2
b1 T
b1 l
b10 1
b10 ?
b10 j
1%
#24
0%
#25
1D
1A
1B
1G
1@
b1000 b
b10 a
b10 _
b10 c
b1101101 #
b1101101 ,
b1101101 0
b1101101 S
b1000 d
1E
b0 ^
1R
b1101101 U
b11 9
b10 [
b1101 7
b1000 \
b1000 `
b100 >
0I
b100 =
b11011010000000000000000000000000000000000000000000000000 V
b100 <
b0 i
1Q
b1010 8
b0z0100 ;
b0z011 6
b1 Y
b111 X
b0 Z
b11 g
b11 k
b1010 W
b11 1
b11 ?
b11 j
b10 2
b10 T
b10 l
1%
#26
0%
#27
1R
1C
1D
1A
1B
1G
1@
b1111001 #
b1111001 ,
b1111001 0
b1111001 S
b10 9
b10 ]
b1000 b
b1000 `
b10 a
b10 _
b10 c
b1111001 U
b1000 ^
b1111001000000000000000000000000000000000000000000 V
b1000 d
0E
b1100 7
0J
b0 [
b101 >
b0 \
b101 =
b110 X
b0 h
1I
b101 <
b1 Z
b0 Y
b1 i
b11 :
b0z0101 ;
b0z000 6
b1011 W
b1101 8
b100 k
b11 2
b11 T
b11 l
b100 1
b100 ?
b100 j
1%
#28
0%
#29
1R
b110011 #
b110011 ,
b110011 0
b110011 S
1F
0D
0A
1G
1@
b110011 U
b0 b
b0 a
b10 c
1C
b11 9
b1111 7
b100 `
b11001100000000000000000000000000000000000 V
b100 d
b10 ]
b110 >
0N
b110 =
b100 ^
b110 <
b10 :
1J
b1100 8
b10 e
b11 h
b0z0110 ;
b0z001 6
b0 f
b1 g
b110 Z
b1 X
b11 i
b101 k
b1100 W
b111 Y
b101 1
b101 ?
b101 j
b100 2
b100 T
b100 l
1%
#30
0%
#31
1R
b1011011 #
b1011011 ,
b1011011 0
b1011011 S
1D
1A
1C
1G
1@
b1011011 U
b10 a
0B
b100 ^
1F
b10 ]
b10 c
b1110 7
b100 b
b10110110000000000000000000000000000 V
b0 _
b100 d
0K
b111 >
b0 `
b111 =
b0 X
b0 g
1N
b111 <
b11 e
b111 Z
b110 Y
b1 f
b11 :
b0z0111 ;
b0z000 6
b1101 W
b1111 8
b110 k
b101 2
b101 T
b101 l
b110 1
b110 ?
b110 j
1%
#32
0%
#33
b1011111 #
b1011111 ,
b1011111 0
b1011111 S
1R
1E
1C
1G
b1011111 U
b10 \
b1 [
1D
1A
b10 ^
1F
b1 ]
b1 c
b1 9
b1 7
b1011111000000000000000000000 V
b1 a
b10 d
b1000 >
0L
b1000 =
b10 b
b1000 <
b10 i
1K
b1110 8
b0z1000 ;
b0z111 6
b101 Y
b11 X
b100 Z
b1 g
b111 k
b1110 W
b111 1
b111 ?
b111 j
b110 2
b110 T
b110 l
1%
#34
0%
#35
13
05
1R
1B
1G
1C
1A
b1110000 #
b1110000 ,
b1110000 0
b1110000 S
b1 ]
b1 _
0E
0D
0F
b1110000 U
0@
b10 ^
b1 a
b0 9
b10 `
b0 \
b111000000000000000000 V
b0 [
b0 c
b10 b
b0 7
0M
b1001 >
b0 d
b1001 =
b10 X
b10 h
1L
b1001 <
b101 Z
b100 Y
b11 i
b1 :
b0z1001 ;
b0z000 6
b1111 W
b1 8
b1000 k
b111 2
b111 T
b111 l
b1000 1
b1000 ?
b1000 j
1%
#36
0%
#37
1D
1F
1@
b1111111 #
b1111111 ,
b1111111 0
b1111111 S
1R
03
1E
b1 c
1G
1C
1A
15
b1111111 U
b1 ]
b1 [
b1 d
1B
b1 ^
b1 a
b11 9
b1001 7
b1 \
b11111110000000 V
b1 _
b1 b
b0 >
04
0O
b0 =
b1 `
b11 v
b0 <
b0 :
b11 h
1M
b1011 t
b0 8
b0 e
b10 {
b0z1010 ;
b0z001 6
b11 i
b10 f
b1101 X
b1010 Z
b11 g
b10 z
b1001 k
b0 W
b1011 Y
1-
b1001 1
b1001 ?
b1001 j
b1000 2
b1000 T
b1000 l
1%
#38
0%
#39
b10 9
b1111011 #
b1111011 ,
b1111011 0
b1111011 S
1R
1D
1F
1@
1B
1G
1C
1A
b1000 7
b1111011 U
b1 ]
0E
b1 b
b1 `
b1 ^
b1 c
b1 _
b1 a
b1 >
b1 =
b1111011 V
b0 [
b1 d
b1 <
0P
14
b0 \
b11 y
b1100 X
b10 g
1O
b11 :
b1 e
b1011 t
b11 w
b0z0011 x
b0z000 s
b1011 Z
b1010 Y
b11 f
b1001 8
b0z0001 ;
b0z000 6
b10 {
b1011 u
b10 J"
b1 W
b0 k
b10 z
b10 n
b10 |
b10 I"
b1001 2
b1001 T
b1001 l
b0 1
b0 ?
b0 j
0-
1%
#40
0%
#41
0D
0F
0@
0B
0G
0C
0A
1#"
1~
1!"
1&"
1}
b0 ]
b0 c
b0 _
b0 a
b1000 A"
b10 @"
b10 >"
b10 B"
b1101101 "
b1101101 +
b1101101 m
b1101101 2"
0E
b0 d
b1111110 #
b1111110 ,
b1111110 0
b1111110 S
b10000 ^
b1000 C"
1$"
b0 ="
11"
b1101101 4"
b11 9
b10 :"
b1011 7
b0 [
b1111110 U
b10000 `
b1000 ;"
b1000 ?"
b10 >
1P
0("
b10 =
b10000 \
b10000 b
b1111110000000000000000000000000000000000000000000000000000000000000000 V
b11011010000000000000000000000000000000000000000000000000 5"
b10 <
b10 :
b11 g
1O
0H
1Q
b0 H"
10"
b1000 8
b10 e
b1 h
b0z0010 ;
b0z001 6
b10 f
b101 X
b10 Z
b1 i
b1 8"
b111 7"
b0 9"
b11 F"
b1 k
b1000 W
b11 Y
b1010 6"
b1 1
b1 ?
b1 j
b0 2
b0 T
b0 l
b10 o
b10 3"
b10 K"
1%
#42
0%
#43
b10000 ^
1R
b110000 #
b110000 ,
b110000 0
b110000 S
b1010 7
b0 \
b11000000000000000000000000000000000000000000000000000000000000 V
b10000 `
b110000 U
0Q
b11 >
b0 b
b11 =
b100 X
b10 g
1H
b11 <
b11 e
b11 Z
b10 Y
b11 f
b11 :
b0z0011 ;
b0z000 6
b1001 W
b1011 8
b10 k
b1 2
b1 T
b1 l
b10 1
b10 ?
b10 j
1%
#44
0%
#45
1D
1A
1B
1G
1@
b1000 b
b10 a
b10 _
b10 c
b1101101 #
b1101101 ,
b1101101 0
b1101101 S
b1000 d
1E
b0 ^
1R
b1101101 U
b11 9
b10 [
b1101 7
b1000 \
b1000 `
b100 >
0I
b100 =
b11011010000000000000000000000000000000000000000000000000 V
b100 <
b0 i
1Q
b1010 8
b0z0100 ;
b0z011 6
b1 Y
b111 X
b0 Z
b11 g
b11 k
b1010 W
b11 1
b11 ?
b11 j
b10 2
b10 T
b10 l
1%
#46
0%
#47
1R
1C
1D
1A
1B
1G
1@
b1111001 #
b1111001 ,
b1111001 0
b1111001 S
b10 9
b10 ]
b1000 b
b1000 `
b10 a
b10 _
b10 c
b1111001 U
b1000 ^
b1111001000000000000000000000000000000000000000000 V
b1000 d
0E
b1100 7
0J
b0 [
b101 >
b0 \
b101 =
b110 X
b0 h
1I
b101 <
b1 Z
b0 Y
b1 i
b11 :
b0z0101 ;
b0z000 6
b1011 W
b1101 8
b100 k
b11 2
b11 T
b11 l
b100 1
b100 ?
b100 j
1%
#48
0%
#49
1R
b110011 #
b110011 ,
b110011 0
b110011 S
1F
0D
0A
1G
1@
b110011 U
b0 b
b0 a
b10 c
1C
b11 9
b1111 7
b100 `
b11001100000000000000000000000000000000000 V
b100 d
b10 ]
b110 >
0N
b110 =
b100 ^
b110 <
b10 :
1J
b1100 8
b10 e
b11 h
b0z0110 ;
b0z001 6
b0 f
b1 g
b110 Z
b1 X
b11 i
b101 k
b1100 W
b111 Y
b101 1
b101 ?
b101 j
b100 2
b100 T
b100 l
1%
#50
0%
#51
1R
b1011011 #
b1011011 ,
b1011011 0
b1011011 S
1D
1A
1C
1G
1@
b1011011 U
b10 a
0B
b100 ^
1F
b10 ]
b10 c
b1110 7
b100 b
b10110110000000000000000000000000000 V
b0 _
b100 d
0K
b111 >
b0 `
b111 =
b0 X
b0 g
1N
b111 <
b11 e
b111 Z
b110 Y
b1 f
b11 :
b0z0111 ;
b0z000 6
b1101 W
b1111 8
b110 k
b101 2
b101 T
b101 l
b110 1
b110 ?
b110 j
1%
#52
0%
#53
b1011111 #
b1011111 ,
b1011111 0
b1011111 S
1R
1E
1C
1G
b1011111 U
b10 \
b1 [
1D
1A
b10 ^
1F
b1 ]
b1 c
b1 9
b1 7
b1011111000000000000000000000 V
b1 a
b10 d
b1000 >
0L
b1000 =
b10 b
b1000 <
b10 i
1K
b1110 8
b0z1000 ;
b0z111 6
b101 Y
b11 X
b100 Z
b1 g
b111 k
b1110 W
b111 1
b111 ?
b111 j
b110 2
b110 T
b110 l
1%
#54
0%
#55
13
05
1R
1B
1G
1C
1A
b1110000 #
b1110000 ,
b1110000 0
b1110000 S
b1 ]
b1 _
0E
0D
0F
b1110000 U
0@
b10 ^
b1 a
b0 9
b10 `
b0 \
b111000000000000000000 V
b0 [
b0 c
b10 b
b0 7
0M
b1001 >
b0 d
b1001 =
b10 X
b10 h
1L
b1001 <
b101 Z
b100 Y
b11 i
b1 :
b0z1001 ;
b0z000 6
b1111 W
b1 8
b1000 k
b111 2
b111 T
b111 l
b1000 1
b1000 ?
b1000 j
1%
#56
0%
#57
1D
1F
1@
b1111111 #
b1111111 ,
b1111111 0
b1111111 S
1R
03
1E
b1 c
1G
1C
1A
15
b1111111 U
b1 ]
b1 [
b1 d
1B
b1 ^
b1 a
b11 9
b1001 7
b1 \
b11111110000000 V
b1 _
b1 b
b0 >
04
0O
b0 =
b1 `
b1010 t
b0 <
b0 :
b11 h
1M
b0 8
b0 e
b11 {
b0z1010 ;
b0z001 6
b11 i
b10 f
b1101 X
b1010 Z
b11 g
b11 z
b1001 k
b0 W
b1011 Y
1-
b1001 1
b1001 ?
b1001 j
b1000 2
b1000 T
b1000 l
1%
#58
0%
#59
b10 9
b1111011 #
b1111011 ,
b1111011 0
b1111011 S
1R
1D
1F
1@
1B
1G
1C
1A
b1000 7
b1111011 U
b1 ]
0E
b1 b
b1 `
b1 ^
b1 c
b1 _
b1 a
b1 >
b1 =
b1111011 V
b0 [
b1 d
b1 <
0P
14
b0 \
b100 y
b1100 X
b10 g
1O
b11 :
b1010 t
b1010 u
b1 e
b0z0100 x
b0z011 s
b1011 Z
b1010 Y
b11 f
b1001 8
b0z0001 ;
b0z000 6
b11 {
b11 J"
b1 W
b0 k
b11 z
b11 n
b11 |
b11 I"
b1001 2
b1001 T
b1001 l
b0 1
b0 ?
b0 j
0-
1%
#60
0%
#61
0D
0F
0@
0B
0G
0C
0A
b0 ]
11"
b0 c
b0 _
b0 a
1""
1#"
1~
1!"
1&"
1}
b1111001 "
b1111001 +
b1111001 m
b1111001 2"
0E
b0 d
b1111110 #
b1111110 ,
b1111110 0
b1111110 S
b10000 ^
b10 <"
b1000 A"
b1000 ?"
b10 @"
b10 >"
b10 B"
b11 9
b1111001 4"
b1011 7
b0 [
b1111110 U
b10000 `
b1000 ="
b1111001000000000000000000000000000000000000000000 5"
b1000 C"
0$"
b10 >
1P
0)"
b0 :"
b10 =
b10000 \
b10000 b
b1111110000000000000000000000000000000000000000000000000000000000000000 V
b0 ;"
b10 <
b10 :
b11 g
1O
0H
1Q
b110 7"
b0 G"
1("
b1000 8
b10 e
b1 h
b0z0010 ;
b0z001 6
b10 f
b101 X
b10 Z
b1 i
b1 9"
b0 8"
b1 H"
b1 k
b1000 W
b11 Y
b1011 6"
b1 1
b1 ?
b1 j
b0 2
b0 T
b0 l
b11 o
b11 3"
b11 K"
1%
#62
0%
#63
b10000 ^
1R
b110000 #
b110000 ,
b110000 0
b110000 S
b1010 7
b0 \
b11000000000000000000000000000000000000000000000000000000000000 V
b10000 `
b110000 U
0Q
b11 >
b0 b
b11 =
b100 X
b10 g
1H
b11 <
b11 e
b11 Z
b10 Y
b11 f
b11 :
b0z0011 ;
b0z000 6
b1001 W
b1011 8
b10 k
b1 2
b1 T
b1 l
b10 1
b10 ?
b10 j
1%
#64
0%
